PipelineCPU/vcdfile/adsel.vcd
$date
  Mon Dec 04 19:09:28 2017
$end
$version
  GHDL v0
$end
$timescale
  1 fs
$end
$var reg 2 ! adsel_ctrl[1:0] $end
$var reg 2 " hactrl[1:0] $end
$var reg 28 # extend26[27:0] $end
$var reg 32 $ pc4[31:0] $end
$var reg 32 % extend16[31:0] $end
$var reg 32 & next_address[31:0] $end
$scope module dut $end
$var reg 2 ' adsel_ctrl[1:0] $end
$var reg 2 ( hactrl[1:0] $end
$var reg 28 ) extend26[27:0] $end
$var reg 32 * pc4[31:0] $end
$var reg 32 + extend16[31:0] $end
$var reg 32 , next_address[31:0] $end
$upscope $end
$enddefinitions $end
#0
b00 !
b00 "
b1000100010001000100010001000 #
b00010001000100010001000100011000 $
b00110011001100110011001100110011 %
b00010001000100010001000100011000 &
b00 '
b00 (
b1000100010001000100010001000 )
b00010001000100010001000100011000 *
b00110011001100110011001100110011 +
b00010001000100010001000100011000 ,
#200000000
b01 "
b0100010001000100010001000100 #
b01000100010001000100010001000100 $
b01010101010101010101010101010101 %
b01000100010001000100010001000100 &
b01 (
b0100010001000100010001000100 )
b01000100010001000100010001000100 *
b01010101010101010101010101010101 +
b01000100010001000100010001000100 ,
#400000000
b00 "
b1100110011001100110011001100 #
b00000000000000000000000000001000 $
b10001000100010001000100010001000 %
b01000100010001000100010000111000 &
b00 (
b1100110011001100110011001100 )
b00000000000000000000000000001000 *
b10001000100010001000100010001000 +
b01000100010001000100010000111000 ,
#600000000
b10 "
b0100010001000100010001000100 #
b10001000100010001000100010001000 $
b01010101010101010101010101010101 %
b10001000100010001000100010000000 &
b10 (
b0100010001000100010001000100 )
b10001000100010001000100010001000 *
b01010101010101010101010101010101 +
b10001000100010001000100010000000 ,
#800000000
b00 "
b1100110011001100110011001100 #
b00000000000000000000000000001000 $
b10001000100010001000100010001000 %
b00000000000000000000000000001000 &
b00 (
b1100110011001100110011001100 )
b00000000000000000000000000001000 *
b10001000100010001000100010001000 +
b00000000000000000000000000001000 ,
#1000000000
b11 "
b1111111111111111111111111111 #
b00100000000000000000000000000000 $
b01000100010001000100010001000100 %
b00100000000000000000000000000000 &
b11 (
b1111111111111111111111111111 )
b00100000000000000000000000000000 *
b01000100010001000100010001000100 +
b00100000000000000000000000000000 ,
#1200000000
b01 !
b00 "
b1000100010001000100010001000 #
b00010001000100010001000100011000 $
b00110011001100110011001100110011 %
b01000100010001000100010000111011 &
b01 '
b00 (
b1000100010001000100010001000 )
b00010001000100010001000100011000 *
b00110011001100110011001100110011 +
b01000100010001000100010000111011 ,
#1400000000
b01 "
b0100010001000100010001000100 #
b01000100010001000100010001000100 $
b01010101010101010101010101010101 %
b10011001100110011001100110001001 &
b01 (
b0100010001000100010001000100 )
b01000100010001000100010001000100 *
b01010101010101010101010101010101 +
b10011001100110011001100110001001 ,
#1600000000
b10 "
b1100110011001100110011001100 #
b00000000000000000000000000001000 $
b10001000100010001000100010001000 %
b10001000100010001000100010000000 &
b10 (
b1100110011001100110011001100 )
b00000000000000000000000000001000 *
b10001000100010001000100010001000 +
b10001000100010001000100010000000 ,
#1800000000
b11 "
b1111111111111111111111111111 #
b00100000000000000000000000000000 $
b01000100010001000100010001000100 %
b01100100010001000100010000110100 &
b11 (
b1111111111111111111111111111 )
b00100000000000000000000000000000 *
b01000100010001000100010001000100 +
b01100100010001000100010000110100 ,
#2000000000
b10 !
b00 "
b1000100010001000100010001000 #
b00010001000100010001000100011000 $
b00110011001100110011001100110011 %
b00011000100010001000100010001000 &
b10 '
b00 (
b1000100010001000100010001000 )
b00010001000100010001000100011000 *
b00110011001100110011001100110011 +
b00011000100010001000100010001000 ,
#2200000000
b01 "
b0100010001000100010001000100 #
b01000100010001000100010001000100 $
b01010101010101010101010101010101 %
b01000100010001000100010001000100 &
b01 (
b0100010001000100010001000100 )
b01000100010001000100010001000100 *
b01010101010101010101010101010101 +
b01000100010001000100010001000100 ,
#2400000000
b10 "
b1100110011001100110011001100 #
b00000000000000000000000000001000 $
b10001000100010001000100010001000 %
b00001100110011001100110011001100 &
b10 (
b1100110011001100110011001100 )
b00000000000000000000000000001000 *
b10001000100010001000100010001000 +
b00001100110011001100110011001100 ,
#2600000000
b11 "
b1111111111111111111111111111 #
b00100000000000000000000000000000 $
b01000100010001000100010001000100 %
b00011111111111111111111111111111 &
b11 (
b1111111111111111111111111111 )
b00100000000000000000000000000000 *
b01000100010001000100010001000100 +
b00011111111111111111111111111111 ,
#2800000000
b11 !
b00 "
b1000100010001000100010001000 #
b00010001000100010001000100011000 $
b00110011001100110011001100110011 %
b00010001000100010001000100011000 &
b11 '
b00 (
b1000100010001000100010001000 )
b00010001000100010001000100011000 *
b00110011001100110011001100110011 +
b00010001000100010001000100011000 ,
#3000000000
b01 "
b0100010001000100010001000100 #
b01000100010001000100010001000100 $
b01010101010101010101010101010101 %
b01000100010001000100010001000100 &
b01 (
b0100010001000100010001000100 )
b01000100010001000100010001000100 *
b01010101010101010101010101010101 +
b01000100010001000100010001000100 ,
#3200000000
b10 "
b1100110011001100110011001100 #
b00000000000000000000000000001000 $
b10001000100010001000100010001000 %
b00000000000000000000000000001000 &
b10 (
b1100110011001100110011001100 )
b00000000000000000000000000001000 *
b10001000100010001000100010001000 +
b00000000000000000000000000001000 ,
#3400000000
b11 "
b1111111111111111111111111111 #
b00100000000000000000000000000000 $
b01000100010001000100010001000100 %
b00100000000000000000000000000000 &
b11 (
b1111111111111111111111111111 )
b00100000000000000000000000000000 *
b01000100010001000100010001000100 +
b00100000000000000000000000000000 ,
