PipelineCPU/vcdfile/extend16.vcd
$date
  Mon Dec 04 19:09:29 2017
$end
$version
  GHDL v0
$end
$timescale
  1 fs
$end
$var reg 1 ! clk $end
$var reg 1 " rst $end
$var reg 16 # in16[15:0] $end
$var reg 32 $ out1[31:0] $end
$var reg 32 % out2[31:0] $end
$scope module dut $end
$var reg 1 & clk $end
$var reg 1 ' rst $end
$var reg 16 ( in16[15:0] $end
$var reg 32 ) out1[31:0] $end
$var reg 32 * out2[31:0] $end
$upscope $end
$enddefinitions $end
#0
0!
0"
b1000100010001000 #
b00000000000000000000000000000000 $
b00000000000000000000000000000000 %
0&
0'
b1000100010001000 (
b00000000000000000000000000000000 )
b00000000000000000000000000000000 *
#20000000
#100000000
1!
1&
#120000000
1"
1'
#200000000
0!
0&
#220000000
#300000000
1!
b11111111111111100010001000100000 $
b00000000000000001000100010001000 %
1&
b11111111111111100010001000100000 )
b00000000000000001000100010001000 *
#400000000
0!
0&
#420000000
b1111111111111111 #
b1111111111111111 (
#500000000
1!
b11111111111111111111111111111100 $
b00000000000000001111111111111111 %
1&
b11111111111111111111111111111100 )
b00000000000000001111111111111111 *
#600000000
0!
0&
#620000000
b0000000000000000 #
b0000000000000000 (
#700000000
1!
b00000000000000000000000000000000 $
b00000000000000000000000000000000 %
1&
b00000000000000000000000000000000 )
b00000000000000000000000000000000 *
#800000000
0!
0&
#820000000
b0011111111111100 #
b0011111111111100 (
#900000000
1!
b00000000000000001111111111110000 $
b00000000000000000011111111111100 %
1&
b00000000000000001111111111110000 )
b00000000000000000011111111111100 *
