PipelineCPU/vcdfile/if_stage.vcd
$date
  Fri Dec 01 17:48:42 2017
$end
$version
  GHDL v0
$end
$timescale
  1 fs
$end
$var reg 1 ! clk $end
$var reg 1 " rst $end
$var reg 2 # adsel_ctrl[1:0] $end
$var reg 2 $ hactrl[1:0] $end
$var reg 32 % extend16[31:0] $end
$var reg 28 & extend26[27:0] $end
$var reg 32 ' inst[31:0] $end
$scope module dut $end
$var reg 1 ( clk $end
$var reg 1 ) rst $end
$var reg 2 * adsel_ctrl[1:0] $end
$var reg 2 + hactrl[1:0] $end
$var reg 32 , extend16[31:0] $end
$var reg 28 - extend26[27:0] $end
$var reg 32 . inst[31:0] $end
$var reg 32 / pc_im[31:0] $end
$var reg 32 0 adder_adsel[31:0] $end
$var reg 32 1 adsel_pc[31:0] $end
$scope module m1 $end
$var reg 1 2 clk $end
$var reg 1 3 rst $end
$var reg 32 4 next_address[31:0] $end
$var reg 32 5 address[31:0] $end
$upscope $end
$scope module m2 $end
$var reg 5 6 address[4:0] $end
$var reg 32 7 inst[31:0] $end
$upscope $end
$scope module m3 $end
$var reg 32 8 address[31:0] $end
$var reg 32 9 pc4[31:0] $end
$upscope $end
$scope module m4 $end
$var reg 2 : adsel_ctrl[1:0] $end
$var reg 2 ; hactrl[1:0] $end
$var reg 28 < extend26[27:0] $end
$var reg 32 = pc4[31:0] $end
$var reg 32 > extend16[31:0] $end
$var reg 32 ? next_address[31:0] $end
$upscope $end
$upscope $end
$enddefinitions $end
#0
0!
0"
b00 #
b00 $
b00000000000000000000000000000000 %
b0000000000000000000000000000 &
b00000100000000000000000000000000 '
0(
0)
b00 *
b00 +
b00000000000000000000000000000000 ,
b0000000000000000000000000000 -
b00000100000000000000000000000000 .
b00000000000000000000000000000000 /
b00000000000000000000000000000100 0
b00000000000000000000000000000100 1
02
03
b00000000000000000000000000000100 4
b00000000000000000000000000000000 5
b00000 6
b00000100000000000000000000000000 7
b00000000000000000000000000000000 8
b00000000000000000000000000000100 9
b00 :
b00 ;
b0000000000000000000000000000 <
b00000000000000000000000000000100 =
b00000000000000000000000000000000 >
b00000000000000000000000000000100 ?
#20000000
#100000000
1!
1(
12
#200000000
0!
0(
02
#220000000
#300000000
1!
1(
12
#400000000
0!
0(
02
#420000000
1"
1)
13
#500000000
1!
b10001100000000010000000000000001 '
1(
b10001100000000010000000000000001 .
b00000000000000000000000000000100 /
b00000000000000000000000000001000 0
b00000000000000000000000000001000 1
12
b00000000000000000000000000001000 4
b00000000000000000000000000000100 5
b00001 6
b10001100000000010000000000000001 7
b00000000000000000000000000000100 8
b00000000000000000000000000001000 9
b00000000000000000000000000001000 =
b00000000000000000000000000001000 ?
#600000000
0!
0(
02
#620000000
#700000000
1!
b10001100000000100000000000000010 '
1(
b10001100000000100000000000000010 .
b00000000000000000000000000001000 /
b00000000000000000000000000001100 0
b00000000000000000000000000001100 1
12
b00000000000000000000000000001100 4
b00000000000000000000000000001000 5
b00010 6
b10001100000000100000000000000010 7
b00000000000000000000000000001000 8
b00000000000000000000000000001100 9
b00000000000000000000000000001100 =
b00000000000000000000000000001100 ?
#800000000
0!
0(
02
#820000000
#900000000
1!
b10001100000000110000000000000011 '
1(
b10001100000000110000000000000011 .
b00000000000000000000000000001100 /
b00000000000000000000000000010000 0
b00000000000000000000000000010000 1
12
b00000000000000000000000000010000 4
b00000000000000000000000000001100 5
b00011 6
b10001100000000110000000000000011 7
b00000000000000000000000000001100 8
b00000000000000000000000000010000 9
b00000000000000000000000000010000 =
b00000000000000000000000000010000 ?
#1000000000
0!
0(
02
#1020000000
#1100000000
1!
b10001100000001000000000000000100 '
1(
b10001100000001000000000000000100 .
b00000000000000000000000000010000 /
b00000000000000000000000000010100 0
b00000000000000000000000000010100 1
12
b00000000000000000000000000010100 4
b00000000000000000000000000010000 5
b00100 6
b10001100000001000000000000000100 7
b00000000000000000000000000010000 8
b00000000000000000000000000010100 9
b00000000000000000000000000010100 =
b00000000000000000000000000010100 ?
#1200000000
0!
0(
02
#1220000000
#1300000000
1!
b10001100000001010000000000000101 '
1(
b10001100000001010000000000000101 .
b00000000000000000000000000010100 /
b00000000000000000000000000011000 0
b00000000000000000000000000011000 1
12
b00000000000000000000000000011000 4
b00000000000000000000000000010100 5
b00101 6
b10001100000001010000000000000101 7
b00000000000000000000000000010100 8
b00000000000000000000000000011000 9
b00000000000000000000000000011000 =
b00000000000000000000000000011000 ?
#1400000000
0!
0(
02
#1420000000
#1500000000
1!
b10001100000001100000000000000110 '
1(
b10001100000001100000000000000110 .
b00000000000000000000000000011000 /
b00000000000000000000000000011100 0
b00000000000000000000000000011100 1
12
b00000000000000000000000000011100 4
b00000000000000000000000000011000 5
b00110 6
b10001100000001100000000000000110 7
b00000000000000000000000000011000 8
b00000000000000000000000000011100 9
b00000000000000000000000000011100 =
b00000000000000000000000000011100 ?
#1600000000
0!
0(
02
#1620000000
#1700000000
1!
b10001100000001110000000000000111 '
1(
b10001100000001110000000000000111 .
b00000000000000000000000000011100 /
b00000000000000000000000000100000 0
b00000000000000000000000000100000 1
12
b00000000000000000000000000100000 4
b00000000000000000000000000011100 5
b00111 6
b10001100000001110000000000000111 7
b00000000000000000000000000011100 8
b00000000000000000000000000100000 9
b00000000000000000000000000100000 =
b00000000000000000000000000100000 ?
#1800000000
0!
0(
02
#1820000000
#1900000000
1!
b10001100000010000000000000001000 '
1(
b10001100000010000000000000001000 .
b00000000000000000000000000100000 /
b00000000000000000000000000100100 0
b00000000000000000000000000100100 1
12
b00000000000000000000000000100100 4
b00000000000000000000000000100000 5
b01000 6
b10001100000010000000000000001000 7
b00000000000000000000000000100000 8
b00000000000000000000000000100100 9
b00000000000000000000000000100100 =
b00000000000000000000000000100100 ?
