PipelineCPU/vcdfile/im.vcd
$date
  Sat Jan 06 21:11:27 2018
$end
$version
  GHDL v0
$end
$timescale
  1 fs
$end
$var reg 5 ! address[4:0] $end
$var reg 32 " inst[31:0] $end
$scope module dut $end
$var reg 5 # address[4:0] $end
$var reg 32 $ inst[31:0] $end
$upscope $end
$enddefinitions $end
#0
b00000 !
b00000100000000000000000000000000 "
b00000 #
b00000100000000000000000000000000 $
#20000000
b00001 !
b10001100000000010000000000000001 "
b00001 #
b10001100000000010000000000000001 $
#220000000
b00010 !
b10001100000000100000000000000010 "
b00010 #
b10001100000000100000000000000010 $
#420000000
b00011 !
b10001100000000110000000000000011 "
b00011 #
b10001100000000110000000000000011 $
#620000000
b00100 !
b10001100000001000000000000000100 "
b00100 #
b10001100000001000000000000000100 $
#820000000
b00101 !
b10001100000001010000000000000101 "
b00101 #
b10001100000001010000000000000101 $
#1020000000
b00110 !
b10001100000001100000000000000110 "
b00110 #
b10001100000001100000000000000110 $
#1220000000
b00111 !
b10001100000001110000000000000111 "
b00111 #
b10001100000001110000000000000111 $
#1420000000
b01000 !
b10001100000010000000000000001000 "
b01000 #
b10001100000010000000000000001000 $
#1620000000
b01001 !
b10001100000010010000000000001001 "
b01001 #
b10001100000010010000000000001001 $
#1820000000
b01010 !
b10001100000010100000000000001010 "
b01010 #
b10001100000010100000000000001010 $
#2020000000
b01011 !
b00000000001000100110000000100000 "
b01011 #
b00000000001000100110000000100000 $
#2220000000
b01100 !
b00000000011001000110100000100000 "
b01100 #
b00000000011001000110100000100000 $
#2420000000
b01101 !
b00000000101001100111000000100000 "
b01101 #
b00000000101001100111000000100000 $
#2620000000
b01110 !
b00000000111010000111100000100000 "
b01110 #
b00000000111010000111100000100000 $
#2820000000
b01111 !
b00000001001010101000000000100000 "
b01111 #
b00000001001010101000000000100000 $
