PipelineCPU/vcdfile/pcpu.vcd
$date
  Sun Jan 07 14:32:00 2018
$end
$version
  GHDL v0
$end
$timescale
  1 fs
$end
$var reg 1 ! clk $end
$var reg 1 " rst $end
$var reg 32 # outdata[31:0] $end
$scope module dut $end
$var reg 1 $ clk $end
$var reg 1 % rst $end
$var reg 32 & outdata[31:0] $end
$var reg 1 ' regwe $end
$var reg 2 ( adsel_ctrl[1:0] $end
$var reg 2 ) hactrl[1:0] $end
$var reg 3 * ctrlout_3_ma[2:0] $end
$var reg 5 + regwad[4:0] $end
$var reg 5 , rtad_r[4:0] $end
$var reg 5 - r_rtad[4:0] $end
$var reg 5 . rdad_r[4:0] $end
$var reg 5 / r_rdad[4:0] $end
$var reg 5 0 shamt_r[4:0] $end
$var reg 5 1 r_shamt[4:0] $end
$var reg 5 2 wad_ma[4:0] $end
$var reg 9 3 ctrl_r[8:0] $end
$var reg 9 4 r_ctrl[8:0] $end
$var reg 28 5 ex26_r[27:0] $end
$var reg 28 6 r_ex26[27:0] $end
$var reg 32 7 ex16_1_r[31:0] $end
$var reg 32 8 r_ex16_1[31:0] $end
$var reg 32 9 inst_r[31:0] $end
$var reg 32 : r_inst[31:0] $end
$var reg 32 ; rs_r[31:0] $end
$var reg 32 < r_rs[31:0] $end
$var reg 32 = rt_r[31:0] $end
$var reg 32 > r_rt[31:0] $end
$var reg 32 ? ex16_2_r[31:0] $end
$var reg 32 @ r_ex16_2[31:0] $end
$var reg 32 A aluout_ma[31:0] $end
$var reg 32 B rtdata_ma[31:0] $end
$var reg 32 C regwdata[31:0] $end
$scope module m1 $end
$var reg 1 D clk $end
$var reg 1 E rst $end
$var reg 2 F adsel_ctrl[1:0] $end
$var reg 2 G hactrl[1:0] $end
$var reg 32 H extend16[31:0] $end
$var reg 28 I extend26[27:0] $end
$var reg 32 J inst[31:0] $end
$var reg 32 K pc_im[31:0] $end
$var reg 32 L adder_adsel[31:0] $end
$var reg 32 M adsel_pc[31:0] $end
$scope module m1 $end
$var reg 1 N clk $end
$var reg 1 O rst $end
$var reg 32 P next_address[31:0] $end
$var reg 32 Q address[31:0] $end
$upscope $end
$scope module m2 $end
$var reg 5 R address[4:0] $end
$var reg 32 S inst[31:0] $end
$upscope $end
$scope module m3 $end
$var reg 32 T address[31:0] $end
$var reg 32 U pc4[31:0] $end
$upscope $end
$scope module m4 $end
$var reg 2 V adsel_ctrl[1:0] $end
$var reg 2 W hactrl[1:0] $end
$var reg 28 X extend26[27:0] $end
$var reg 32 Y pc4[31:0] $end
$var reg 32 Z extend16[31:0] $end
$var reg 32 [ next_address[31:0] $end
$upscope $end
$upscope $end
$scope module m2 $end
$var reg 1 \ clk $end
$var reg 1 ] rst $end
$var reg 32 ^ in32[31:0] $end
$var reg 32 _ out32[31:0] $end
$upscope $end
$scope module m3 $end
$var reg 1 ` clk $end
$var reg 1 a rst $end
$var reg 1 b regwe $end
$var reg 5 c wad[4:0] $end
$var reg 32 d inst[31:0] $end
$var reg 32 e wdata[31:0] $end
$var reg 2 f hactrl[1:0] $end
$var reg 5 g rtad[4:0] $end
$var reg 5 h rdad[4:0] $end
$var reg 5 i shamt[4:0] $end
$var reg 9 j ctrlout[8:0] $end
$var reg 28 k ex26[27:0] $end
$var reg 32 l rs[31:0] $end
$var reg 32 m rt[31:0] $end
$var reg 32 n ex16_1[31:0] $end
$var reg 32 o ex16_2[31:0] $end
$var reg 2 p hazard[1:0] $end
$var reg 2 q stallflag[1:0] $end
$var reg 32 r stallout[31:0] $end
$scope module m1 $end
$var reg 32 s inst[31:0] $end
$var reg 2 t inhactrl[1:0] $end
$var reg 2 u inflag[1:0] $end
$var reg 2 v outflag[1:0] $end
$var reg 2 w outhactrl[1:0] $end
$var reg 32 x instout[31:0] $end
$var reg 5 y brt[4:0] $end
$var reg 5 z brd[4:0] $end
$var reg 6 { bopcd[5:0] $end
$upscope $end
$scope module m2 $end
$var reg 1 | clk $end
$var reg 1 } rst $end
$var reg 1 !" we $end
$var reg 5 "" wad[4:0] $end
$var reg 5 #" rad1[4:0] $end
$var reg 5 $" rad2[4:0] $end
$var reg 32 %" indata[31:0] $end
$var reg 32 &" out1[31:0] $end
$var reg 32 '" out2[31:0] $end
$comment regdata is not handled $end
$upscope $end
$scope module m3 $end
$var reg 1 (" clk $end
$var reg 1 )" rst $end
$var reg 5 *" in5[4:0] $end
$var reg 5 +" out5[4:0] $end
$upscope $end
$scope module m4 $end
$var reg 1 ," clk $end
$var reg 1 -" rst $end
$var reg 5 ." in5[4:0] $end
$var reg 5 /" out5[4:0] $end
$upscope $end
$scope module m5 $end
$var reg 1 0" clk $end
$var reg 1 1" rst $end
$var reg 16 2" in16[15:0] $end
$var reg 32 3" out1[31:0] $end
$var reg 32 4" out2[31:0] $end
$upscope $end
$scope module m6 $end
$var reg 1 5" clk $end
$var reg 1 6" rst $end
$var reg 26 7" in26[25:0] $end
$var reg 28 8" out32[27:0] $end
$upscope $end
$scope module m7 $end
$var reg 1 9" clk $end
$var reg 1 :" rst $end
$var reg 5 ;" in5[4:0] $end
$var reg 5 <" out5[4:0] $end
$upscope $end
$scope module m8 $end
$var reg 1 =" clk $end
$var reg 1 >" rst $end
$var reg 6 ?" opcode[5:0] $end
$var reg 6 @" funct[5:0] $end
$var reg 9 A" ctrl[8:0] $end
$upscope $end
$upscope $end
$scope module m4 $end
$var reg 1 B" clk $end
$var reg 1 C" rst $end
$var reg 32 D" in32[31:0] $end
$var reg 32 E" out32[31:0] $end
$upscope $end
$scope module m5 $end
$var reg 1 F" clk $end
$var reg 1 G" rst $end
$var reg 28 H" in28[27:0] $end
$var reg 28 I" out28[27:0] $end
$upscope $end
$scope module m6 $end
$var reg 1 J" clk $end
$var reg 1 K" rst $end
$var reg 32 L" in32[31:0] $end
$var reg 32 M" out32[31:0] $end
$upscope $end
$scope module m7 $end
$var reg 1 N" clk $end
$var reg 1 O" rst $end
$var reg 32 P" in32[31:0] $end
$var reg 32 Q" out32[31:0] $end
$upscope $end
$scope module m8 $end
$var reg 1 R" clk $end
$var reg 1 S" rst $end
$var reg 32 T" in32[31:0] $end
$var reg 32 U" out32[31:0] $end
$upscope $end
$scope module m9 $end
$var reg 1 V" clk $end
$var reg 1 W" rst $end
$var reg 5 X" in5[4:0] $end
$var reg 5 Y" out5[4:0] $end
$upscope $end
$scope module m10 $end
$var reg 1 Z" clk $end
$var reg 1 [" rst $end
$var reg 5 \" in5[4:0] $end
$var reg 5 ]" out5[4:0] $end
$upscope $end
$scope module m11 $end
$var reg 1 ^" clk $end
$var reg 1 _" rst $end
$var reg 5 `" in5[4:0] $end
$var reg 5 a" out5[4:0] $end
$upscope $end
$scope module m12 $end
$var reg 1 b" clk $end
$var reg 1 c" rst $end
$var reg 9 d" in9[8:0] $end
$var reg 9 e" out9[8:0] $end
$upscope $end
$scope module m13 $end
$var reg 1 f" rst $end
$var reg 5 g" rtad[4:0] $end
$var reg 5 h" rdad[4:0] $end
$var reg 5 i" shamt[4:0] $end
$var reg 9 j" ctrlout[8:0] $end
$var reg 32 k" rsdata[31:0] $end
$var reg 32 l" rtdata[31:0] $end
$var reg 32 m" ex16[31:0] $end
$var reg 2 n" adsel_ctrl[1:0] $end
$var reg 3 o" ctrlout_3[2:0] $end
$var reg 5 p" wad[4:0] $end
$var reg 32 q" aluout[31:0] $end
$var reg 32 r" exout_rtdata[31:0] $end
$var reg 32 s" mux_alu[31:0] $end
$scope module m1 $end
$var reg 1 t" rst $end
$var reg 4 u" aluctrl[3:0] $end
$var reg 5 v" shamt[4:0] $end
$var reg 32 w" in1[31:0] $end
$var reg 32 x" in2[31:0] $end
$var reg 2 y" adsel_ctrl[1:0] $end
$var reg 32 z" aluout[31:0] $end
$upscope $end
$scope module m2 $end
$var reg 1 {" sel $end
$var reg 32 |" in0[31:0] $end
$var reg 32 }" in1[31:0] $end
$var reg 32 !# out1[31:0] $end
$upscope $end
$scope module m3 $end
$var reg 1 "# sel $end
$var reg 5 ## in0[4:0] $end
$var reg 5 $# in1[4:0] $end
$var reg 5 %# out1[4:0] $end
$upscope $end
$upscope $end
$scope module m18 $end
$var reg 1 &# clk $end
$var reg 1 '# rst $end
$var reg 5 (# wad[4:0] $end
$var reg 3 )# ctrlout_3[2:0] $end
$var reg 32 *# aluout[31:0] $end
$var reg 32 +# rtdata[31:0] $end
$var reg 1 ,# regwe $end
$var reg 5 -# regwad[4:0] $end
$var reg 32 .# outdata[31:0] $end
$var reg 1 /# r3_mux $end
$var reg 32 0# dm_r[31:0] $end
$var reg 32 1# r_mux[31:0] $end
$var reg 32 2# r1_mux[31:0] $end
$scope module m1 $end
$var reg 1 3# clk $end
$var reg 1 4# rst $end
$var reg 1 5# we $end
$var reg 6 6# address[5:0] $end
$var reg 32 7# indata[31:0] $end
$var reg 32 8# outdata[31:0] $end
$comment memdata is not handled $end
$upscope $end
$scope module m3 $end
$var reg 1 9# sel $end
$var reg 32 :# in0[31:0] $end
$var reg 32 ;# in1[31:0] $end
$var reg 32 <# out1[31:0] $end
$upscope $end
$scope module m4 $end
$var reg 1 =# clk $end
$var reg 1 ># rst $end
$var reg 5 ?# in5[4:0] $end
$var reg 5 @# out5[4:0] $end
$upscope $end
$scope module m5 $end
$var reg 1 A# clk $end
$var reg 1 B# rst $end
$var reg 32 C# in32[31:0] $end
$var reg 32 D# out32[31:0] $end
$upscope $end
$scope module m6 $end
$var reg 1 E# clk $end
$var reg 1 F# rst $end
$var reg 1 G# in1 $end
$var reg 1 H# out1 $end
$upscope $end
$scope module m7 $end
$var reg 1 I# clk $end
$var reg 1 J# rst $end
$var reg 1 K# in1 $end
$var reg 1 L# out1 $end
$upscope $end
$upscope $end
$upscope $end
$enddefinitions $end
#0
0!
0"
b00000000000000000000000000000000 #
0$
0%
b00000000000000000000000000000000 &
0'
b00 (
b00 )
b000 *
b00000 +
b00000 ,
b00000 -
b00000 .
b00000 /
b00000 0
b00000 1
b00000 2
b000000000 3
b000000000 4
b0000000000000000000000000000 5
b0000000000000000000000000000 6
b00000000000000000000000000000000 7
b00000000000000000000000000000000 8
b00000100000000000000000000000000 9
b00000000000000000000000000000000 :
b00000000000000000000000000000000 ;
b00000000000000000000000000000000 <
b00000000000000000000000000000000 =
b00000000000000000000000000000000 >
b00000000000000000000000000000000 ?
b00000000000000000000000000000000 @
b00000000000000000000000000000000 A
b00000000000000000000000000000000 B
b00000000000000000000000000000000 C
0D
0E
b00 F
b00 G
b00000000000000000000000000000000 H
b0000000000000000000000000000 I
b00000100000000000000000000000000 J
b00000000000000000000000000000000 K
b00000000000000000000000000000100 L
b00000000000000000000000000000100 M
0N
0O
b00000000000000000000000000000100 P
b00000000000000000000000000000000 Q
b00000 R
b00000100000000000000000000000000 S
b00000000000000000000000000000000 T
b00000000000000000000000000000100 U
b00 V
b00 W
b0000000000000000000000000000 X
b00000000000000000000000000000100 Y
b00000000000000000000000000000000 Z
b00000000000000000000000000000100 [
0\
0]
b00000100000000000000000000000000 ^
b00000000000000000000000000000000 _
0`
0a
0b
b00000 c
b00000000000000000000000000000000 d
b00000000000000000000000000000000 e
b00 f
b00000 g
b00000 h
b00000 i
b000000000 j
b0000000000000000000000000000 k
b00000000000000000000000000000000 l
b00000000000000000000000000000000 m
b00000000000000000000000000000000 n
b00000000000000000000000000000000 o
b00 p
b00 q
b00000000000000000000000000000000 r
b00000000000000000000000000000000 s
b00 t
b00 u
b00 v
b00 w
b00000000000000000000000000000000 x
b00000 y
b00000 z
b000000 {
0|
0}
0!"
b00000 ""
b00000 #"
b00000 $"
b00000000000000000000000000000000 %"
b00000000000000000000000000000000 &"
b00000000000000000000000000000000 '"
0("
0)"
b00000 *"
b00000 +"
0,"
0-"
b00000 ."
b00000 /"
00"
01"
b0000000000000000 2"
b00000000000000000000000000000000 3"
b00000000000000000000000000000000 4"
05"
06"
b00000000000000000000000000 7"
b0000000000000000000000000000 8"
09"
0:"
b00000 ;"
b00000 <"
0="
0>"
b000000 ?"
b000000 @"
b000000000 A"
0B"
0C"
b00000000000000000000000000000000 D"
b00000000000000000000000000000000 E"
0F"
0G"
b0000000000000000000000000000 H"
b0000000000000000000000000000 I"
0J"
0K"
b00000000000000000000000000000000 L"
b00000000000000000000000000000000 M"
0N"
0O"
b00000000000000000000000000000000 P"
b00000000000000000000000000000000 Q"
0R"
0S"
b00000000000000000000000000000000 T"
b00000000000000000000000000000000 U"
0V"
0W"
b00000 X"
b00000 Y"
0Z"
0["
b00000 \"
b00000 ]"
0^"
0_"
b00000 `"
b00000 a"
0b"
0c"
b000000000 d"
b000000000 e"
0f"
b00000 g"
b00000 h"
b00000 i"
b000000000 j"
b00000000000000000000000000000000 k"
b00000000000000000000000000000000 l"
b00000000000000000000000000000000 m"
b00 n"
b000 o"
b00000 p"
b00000000000000000000000000000000 q"
b00000000000000000000000000000000 r"
b00000000000000000000000000000000 s"
0t"
b0000 u"
b00000 v"
b00000000000000000000000000000000 w"
b00000000000000000000000000000000 x"
b00 y"
b00000000000000000000000000000000 z"
0{"
b00000000000000000000000000000000 |"
b00000000000000000000000000000000 }"
b00000000000000000000000000000000 !#
0"#
b00000 ##
b00000 $#
b00000 %#
0&#
0'#
b00000 (#
b000 )#
b00000000000000000000000000000000 *#
b00000000000000000000000000000000 +#
0,#
b00000 -#
b00000000000000000000000000000000 .#
0/#
b00000000000000000000000000000000 0#
bUUUUUUUUUUUUUUUUUUUUUUUUUUUUUUUU 1#
b00000000000000000000000000000000 2#
03#
04#
05#
b000000 6#
b00000000000000000000000000000000 7#
b00000000000000000000000000000000 8#
09#
b00000000000000000000000000000000 :#
b00000000000000000000000000000000 ;#
b00000000000000000000000000000000 <#
0=#
0>#
b00000 ?#
b00000 @#
0A#
0B#
b00000000000000000000000000000000 C#
b00000000000000000000000000000000 D#
0E#
0F#
0G#
0H#
0I#
0J#
0K#
0L#
#20000000
#100000000
1!
1$
1D
1N
1\
1`
1|
1("
1,"
10"
15"
19"
1="
1B"
1F"
1J"
1N"
1R"
1V"
1Z"
1^"
1b"
1&#
13#
1=#
1A#
1E#
1I#
#200000000
0!
0$
0D
0N
0\
0`
0|
0("
0,"
00"
05"
09"
0="
0B"
0F"
0J"
0N"
0R"
0V"
0Z"
0^"
0b"
0&#
03#
0=#
0A#
0E#
0I#
#220000000
1"
1%
1E
1O
1]
1a
1}
1)"
1-"
11"
16"
1:"
1>"
1C"
1G"
1K"
1O"
1S"
1W"
1["
1_"
1c"
1f"
1t"
1'#
14#
1>#
1B#
1F#
1J#
#300000000
1!
1$
b10001100000000010000000000000001 9
b00000100000000000000000000000000 :
1D
b10001100000000010000000000000001 J
b00000000000000000000000000000100 K
b00000000000000000000000000001000 L
b00000000000000000000000000001000 M
1N
b00000000000000000000000000001000 P
b00000000000000000000000000000100 Q
b00001 R
b10001100000000010000000000000001 S
b00000000000000000000000000000100 T
b00000000000000000000000000001000 U
b00000000000000000000000000001000 Y
b00000000000000000000000000001000 [
1\
b10001100000000010000000000000001 ^
b00000100000000000000000000000000 _
1`
b00000100000000000000000000000000 d
b00000100000000000000000000000000 r
b00000100000000000000000000000000 s
b00000100000000000000000000000000 x
b000001 {
1|
1("
1,"
10"
15"
19"
1="
b000001 ?"
1B"
1F"
1J"
1N"
1R"
1V"
1Z"
1^"
1b"
1&#
13#
1=#
1A#
1E#
1I#
#400000000
0!
0$
0D
0N
0\
0`
0|
0("
0,"
00"
05"
09"
0="
0B"
0F"
0J"
0N"
0R"
0V"
0Z"
0^"
0b"
0&#
03#
0=#
0A#
0E#
0I#
#420000000
#500000000
1!
1$
b10001100000000100000000000000000 9
b10001100000000010000000000000001 :
1D
b10001100000000100000000000000000 J
b00000000000000000000000000001000 K
b00000000000000000000000000001100 L
b00000000000000000000000000001100 M
1N
b00000000000000000000000000001100 P
b00000000000000000000000000001000 Q
b00010 R
b10001100000000100000000000000000 S
b00000000000000000000000000001000 T
b00000000000000000000000000001100 U
b00000000000000000000000000001100 Y
b00000000000000000000000000001100 [
1\
b10001100000000100000000000000000 ^
b10001100000000010000000000000001 _
1`
b10001100000000010000000000000001 d
b10001100000000010000000000000001 r
b10001100000000010000000000000001 s
b10001100000000010000000000000001 x
b00001 y
b100011 {
1|
b00001 $"
1("
b00001 *"
1,"
10"
b0000000000000001 2"
15"
b00000000010000000000000001 7"
19"
1="
b100011 ?"
b000001 @"
1B"
1F"
1J"
1N"
1R"
1V"
1Z"
1^"
1b"
1&#
13#
1=#
1A#
1E#
1I#
#600000000
0!
0$
0D
0N
0\
0`
0|
0("
0,"
00"
05"
09"
0="
0B"
0F"
0J"
0N"
0R"
0V"
0Z"
0^"
0b"
0&#
03#
0=#
0A#
0E#
0I#
#700000000
1!
1$
b00001 ,
b100100001 3
b0000000001000000000000000100 5
b00000000000000000000000000000100 7
b10001100000001010000000000001010 9
b10001100000000100000000000000000 :
b00000000000000000000000000000001 ?
1D
b10001100000001010000000000001010 J
b00000000000000000000000000001100 K
b00000000000000000000000000010000 L
b00000000000000000000000000010000 M
1N
b00000000000000000000000000010000 P
b00000000000000000000000000001100 Q
b00011 R
b10001100000001010000000000001010 S
b00000000000000000000000000001100 T
b00000000000000000000000000010000 U
b00000000000000000000000000010000 Y
b00000000000000000000000000010000 [
1\
b10001100000001010000000000001010 ^
b10001100000000100000000000000000 _
1`
b10001100000000100000000000000000 d
b00001 g
b100100001 j
b0000000001000000000000000100 k
b00000000000000000000000000000100 n
b00000000000000000000000000000001 o
b10001100000000100000000000000000 r
b10001100000000100000000000000000 s
b10001100000000100000000000000000 x
b00010 y
1|
b00010 $"
1("
b00010 *"
b00001 +"
1,"
10"
b0000000000000000 2"
b00000000000000000000000000000100 3"
b00000000000000000000000000000001 4"
15"
b00000000100000000000000000 7"
b0000000001000000000000000100 8"
19"
1="
b000000 @"
b100100001 A"
1B"
b00000000000000000000000000000100 D"
1F"
b0000000001000000000000000100 H"
1J"
1N"
1R"
b00000000000000000000000000000001 T"
1V"
b00001 X"
1Z"
1^"
1b"
b100100001 d"
1&#
13#
1=#
1A#
1E#
1I#
#800000000
0!
0$
0D
0N
0\
0`
0|
0("
0,"
00"
05"
09"
0="
0B"
0F"
0J"
0N"
0R"
0V"
0Z"
0^"
0b"
0&#
03#
0=#
0A#
0E#
0I#
#900000000
1!
1$
b001 *
b00010 ,
b00001 -
b00001 2
b100100001 4
b0000000010000000000000000000 5
b0000000001000000000000000100 6
b00000000000000000000000000000000 7
b00000000000000000000000000000100 8
b00000000001000100001000000100000 9
b10001100000001010000000000001010 :
b00000000000000000000000000000000 ?
b00000000000000000000000000000001 @
b00000000000000000000000000000001 A
1D
b00000000000000000000000000000100 H
b0000000001000000000000000100 I
b00000000001000100001000000100000 J
b00000000000000000000000000010000 K
b00000000000000000000000000010100 L
b00000000000000000000000000010100 M
1N
b00000000000000000000000000010100 P
b00000000000000000000000000010000 Q
b00100 R
b00000000001000100001000000100000 S
b00000000000000000000000000010000 T
b00000000000000000000000000010100 U
b0000000001000000000000000100 X
b00000000000000000000000000010100 Y
b00000000000000000000000000000100 Z
b00000000000000000000000000010100 [
1\
b00000000001000100001000000100000 ^
b10001100000001010000000000001010 _
1`
b10001100000001010000000000001010 d
b00010 g
b0000000010000000000000000000 k
b00000000000000000000000000000000 n
b00000000000000000000000000000000 o
b10001100000001010000000000001010 r
b10001100000001010000000000001010 s
b10001100000001010000000000001010 x
b00101 y
1|
b00101 $"
1("
b00101 *"
b00010 +"
1,"
10"
b0000000000001010 2"
b00000000000000000000000000000000 3"
b00000000000000000000000000000000 4"
15"
b00000001010000000000001010 7"
b0000000010000000000000000000 8"
19"
1="
b001010 @"
1B"
b00000000000000000000000000000000 D"
b00000000000000000000000000000100 E"
1F"
b0000000010000000000000000000 H"
b0000000001000000000000000100 I"
1J"
1N"
1R"
b00000000000000000000000000000000 T"
b00000000000000000000000000000001 U"
1V"
b00010 X"
b00001 Y"
1Z"
1^"
1b"
b100100001 e"
b00001 g"
b100100001 j"
b00000000000000000000000000000001 m"
b001 o"
b00001 p"
b00000000000000000000000000000001 q"
b00000000000000000000000000000001 s"
b0100 u"
b00000000000000000000000000000001 x"
b00000000000000000000000000000001 z"
1{"
b00000000000000000000000000000001 }"
b00000000000000000000000000000001 !#
b00001 ##
b00001 %#
1&#
b00001 (#
b001 )#
b00000000000000000000000000000001 *#
13#
b000001 6#
1=#
b00001 ?#
1A#
b00000000000000000000000000000001 C#
1E#
1I#
1K#
#1000000000
0!
0$
0D
0N
0\
0`
0|
0("
0,"
00"
05"
09"
0="
0B"
0F"
0J"
0N"
0R"
0V"
0Z"
0^"
0b"
0&#
03#
0=#
0A#
0E#
0I#
#1100000000
1!
b00000000000000000000000000000001 #
1$
b00000000000000000000000000000001 &
1'
b10 )
b00001 +
b00101 ,
b00010 -
b00010 2
b0000000101000000000000101000 5
b0000000010000000000000000000 6
b00000000000000000000000000101000 7
b00000000000000000000000000000000 8
b00000000010000110001100000100000 9
b00000000001000100001000000100000 :
b00000000000000000000000000001010 ?
b00000000000000000000000000000000 @
b00000000000000000000000000000000 A
b00000000000000000000000000000001 C
1D
b10 G
b00000000000000000000000000000000 H
b0000000010000000000000000000 I
b00000000010000110001100000100000 J
b00000000000000000000000000010100 K
b00000000000000000000000000011000 L
b00000000000000000000000000010000 M
1N
b00000000000000000000000000010000 P
b00000000000000000000000000010100 Q
b00101 R
b00000000010000110001100000100000 S
b00000000000000000000000000010100 T
b00000000000000000000000000011000 U
b10 W
b0000000010000000000000000000 X
b00000000000000000000000000011000 Y
b00000000000000000000000000000000 Z
b00000000000000000000000000010000 [
1\
b00000000010000110001100000100000 ^
b00000000001000100001000000100000 _
1`
1b
b00001 c
b00000000001000100001000000100000 d
b00000000000000000000000000000001 e
b10 f
b00101 g
b0000000101000000000000101000 k
b00000000000000000000000000101000 n
b00000000000000000000000000001010 o
b10 p
b01 q
b00000100000000000000000000000000 r
b00000000001000100001000000100000 s
b10 t
b01 u
b01 v
b10 w
b00000100000000000000000000000000 x
b00000 y
b000001 {
1|
1!"
b00001 ""
b00000 $"
b00000000000000000000000000000001 %"
1("
b00000 *"
b00101 +"
1,"
10"
b0000000000000000 2"
b00000000000000000000000000101000 3"
b00000000000000000000000000001010 4"
15"
b00000000000000000000000000 7"
b0000000101000000000000101000 8"
19"
1="
b000001 ?"
b000000 @"
1B"
b00000000000000000000000000101000 D"
b00000000000000000000000000000000 E"
1F"
b0000000101000000000000101000 H"
b0000000010000000000000000000 I"
1J"
1N"
1R"
b00000000000000000000000000001010 T"
b00000000000000000000000000000000 U"
1V"
b00101 X"
b00010 Y"
1Z"
1^"
1b"
b00010 g"
b00000000000000000000000000000000 m"
b00010 p"
b00000000000000000000000000000000 q"
b00000000000000000000000000000000 s"
b00000000000000000000000000000000 x"
b00000000000000000000000000000000 z"
b00000000000000000000000000000000 }"
b00000000000000000000000000000000 !#
b00010 ##
b00010 %#
1&#
b00010 (#
b00000000000000000000000000000000 *#
1,#
b00001 -#
b00000000000000000000000000000001 .#
b00000000000000000000000000000001 0#
b00000000000000000000000000000001 2#
13#
b000000 6#
b00000000000000000000000000000001 8#
b00000000000000000000000000000001 :#
b00000000000000000000000000000001 ;#
b00000000000000000000000000000001 <#
1=#
b00010 ?#
b00001 @#
1A#
b00000000000000000000000000000000 C#
b00000000000000000000000000000001 D#
1E#
1I#
1L#
#1200000000
0!
0$
0D
0N
0\
0`
0|
0("
0,"
00"
05"
09"
0="
0B"
0F"
0J"
0N"
0R"
0V"
0Z"
0^"
0b"
0&#
03#
0=#
0A#
0E#
0I#
#1300000000
1!
b00000000000000000000000000000000 #
1$
b00000000000000000000000000000000 &
b00 )
b00010 +
b00000 ,
b00101 -
b00101 2
b000000000 3
b0000000000000000000000000000 5
b0000000101000000000000101000 6
b00000000000000000000000000000000 7
b00000000000000000000000000101000 8
b00000000001000100001000000100000 9
b00000000010000110001100000100000 :
b00000000000000000000000000000000 ?
b00000000000000000000000000001010 @
b00000000000000000000000000001010 A
b00000000000000000000000000000000 C
1D
b00 G
b00000000000000000000000000101000 H
b0000000101000000000000101000 I
b00000000001000100001000000100000 J
b00000000000000000000000000010000 K
b00000000000000000000000000010100 L
b00000000000000000000000000010100 M
1N
b00000000000000000000000000010100 P
b00000000000000000000000000010000 Q
b00100 R
b00000000001000100001000000100000 S
b00000000000000000000000000010000 T
b00000000000000000000000000010100 U
b00 W
b0000000101000000000000101000 X
b00000000000000000000000000010100 Y
b00000000000000000000000000101000 Z
b00000000000000000000000000010100 [
1\
b00000000001000100001000000100000 ^
b00000000010000110001100000100000 _
1`
b00010 c
b00000000010000110001100000100000 d
b00000000000000000000000000000000 e
b00 f
b00000 g
b000000000 j
b0000000000000000000000000000 k
b00000000000000000000000000000000 n
b00000000000000000000000000000000 o
b00 p
b00 q
b00000000010000110001100000100000 s
b00 t
b00 u
b00 v
b00 w
1|
b00010 ""
b00000000000000000000000000000000 %"
1("
b00000 +"
1,"
10"
b00000000000000000000000000000000 3"
b00000000000000000000000000000000 4"
15"
b0000000000000000000000000000 8"
19"
1="
b000000000 A"
1B"
b00000000000000000000000000000000 D"
b00000000000000000000000000101000 E"
1F"
b0000000000000000000000000000 H"
b0000000101000000000000101000 I"
1J"
1N"
1R"
b00000000000000000000000000000000 T"
b00000000000000000000000000001010 U"
1V"
b00000 X"
b00101 Y"
1Z"
1^"
1b"
b000000000 d"
b00101 g"
b00000000000000000000000000001010 m"
b00101 p"
b00000000000000000000000000001010 q"
b00000000000000000000000000001010 s"
b00000000000000000000000000001010 x"
b00000000000000000000000000001010 z"
b00000000000000000000000000001010 }"
b00000000000000000000000000001010 !#
b00101 ##
b00101 %#
1&#
b00101 (#
b00000000000000000000000000001010 *#
b00010 -#
b00000000000000000000000000000000 .#
b00000000000000000000000000000000 0#
b00000000000000000000000000000000 2#
13#
b001010 6#
b00000000000000000000000000000000 8#
b00000000000000000000000000000000 :#
b00000000000000000000000000000000 ;#
b00000000000000000000000000000000 <#
1=#
b00101 ?#
b00010 @#
1A#
b00000000000000000000000000001010 C#
b00000000000000000000000000000000 D#
1E#
1I#
#1400000000
0!
0$
0D
0N
0\
0`
0|
0("
0,"
00"
05"
09"
0="
0B"
0F"
0J"
0N"
0R"
0V"
0Z"
0^"
0b"
0&#
03#
0=#
0A#
0E#
0I#
#1500000000
1!
b00000000000000000000000000000011 #
1$
b00000000000000000000000000000011 &
b000 *
b00101 +
b00000 -
b00000 2
b000000000 4
b0000000000000000000000000000 6
b00000000000000000000000000000000 8
b00000000010000110001100000100000 9
b00000000001000100001000000100000 :
b00000000000000000000000000000000 @
b00000000000000000000000000000000 A
b00000000000000000000000000000011 C
1D
b00000000000000000000000000000000 H
b0000000000000000000000000000 I
b00000000010000110001100000100000 J
b00000000000000000000000000010100 K
b00000000000000000000000000011000 L
b00000000000000000000000000011000 M
1N
b00000000000000000000000000011000 P
b00000000000000000000000000010100 Q
b00101 R
b00000000010000110001100000100000 S
b00000000000000000000000000010100 T
b00000000000000000000000000011000 U
b0000000000000000000000000000 X
b00000000000000000000000000011000 Y
b00000000000000000000000000000000 Z
b00000000000000000000000000011000 [
1\
b00000000010000110001100000100000 ^
b00000000001000100001000000100000 _
1`
b00101 c
b00000000001000100001000000100000 d
b00000000000000000000000000000011 e
b00000000001000100001000000100000 r
b00000000001000100001000000100000 s
b00000000001000100001000000100000 x
b00010 y
b00010 z
b000000 {
1|
b00101 ""
b00001 #"
b00010 $"
b00000000000000000000000000000011 %"
1("
b00010 *"
1,"
b00010 ."
10"
b0001000000100000 2"
15"
b00001000100001000000100000 7"
19"
1="
b000000 ?"
b100000 @"
1B"
b00000000000000000000000000000000 E"
1F"
b0000000000000000000000000000 I"
1J"
1N"
1R"
b00000000000000000000000000000000 U"
1V"
b00000 Y"
1Z"
1^"
1b"
b000000000 e"
b00000 g"
b000000000 j"
b00000000000000000000000000000000 m"
b000 o"
b00000 p"
b00000000000000000000000000000000 q"
b00000000000000000000000000000000 s"
b0000 u"
b00000000000000000000000000000000 x"
b00000000000000000000000000000000 z"
0{"
b00000000000000000000000000000000 }"
b00000000000000000000000000000000 !#
b00000 ##
b00000 %#
1&#
b00000 (#
b000 )#
b00000000000000000000000000000000 *#
b00101 -#
b00000000000000000000000000000011 .#
b00000000000000000000000000000011 0#
b00000000000000000000000000001010 2#
13#
b000000 6#
b00000000000000000000000000000011 8#
b00000000000000000000000000000011 :#
b00000000000000000000000000001010 ;#
b00000000000000000000000000000011 <#
1=#
b00000 ?#
b00101 @#
1A#
b00000000000000000000000000000000 C#
b00000000000000000000000000001010 D#
1E#
1I#
0K#
#1600000000
0!
0$
0D
0N
0\
0`
0|
0("
0,"
00"
05"
09"
0="
0B"
0F"
0J"
0N"
0R"
0V"
0Z"
0^"
0b"
0&#
03#
0=#
0A#
0E#
0I#
