PipelineCPU/vcdfile/pcpu.vcd
$date
  Fri Nov 17 15:29:05 2017
$end
$version
  GHDL v0
$end
$timescale
  1 fs
$end
$var reg 1 ! clk $end
$var reg 1 " rst $end
$var reg 32 # outdata[31:0] $end
$scope module dut $end
$var reg 1 $ clk $end
$var reg 1 % rst $end
$var reg 32 & outdata[31:0] $end
$var reg 1 ' regwe $end
$var reg 2 ( adsel_ctrl[1:0] $end
$var reg 2 ) hactrl[1:0] $end
$var reg 3 * ctrlout_3_r[2:0] $end
$var reg 3 + r_ctrlout_3[2:0] $end
$var reg 5 , regwad[4:0] $end
$var reg 5 - rtad_r[4:0] $end
$var reg 5 . r_rtad[4:0] $end
$var reg 5 / rdad_r[4:0] $end
$var reg 5 0 r_rdad[4:0] $end
$var reg 5 1 shamt_r[4:0] $end
$var reg 5 2 r_shamt[4:0] $end
$var reg 5 3 wad_r[4:0] $end
$var reg 5 4 r_wad[4:0] $end
$var reg 9 5 ctrl_r[8:0] $end
$var reg 9 6 r_ctrl[8:0] $end
$var reg 28 7 ex26_r[27:0] $end
$var reg 28 8 r_ex26[27:0] $end
$var reg 32 9 ex16_1[31:0] $end
$var reg 32 : inst_r[31:0] $end
$var reg 32 ; r_inst[31:0] $end
$var reg 32 < rs_r[31:0] $end
$var reg 32 = r_rs[31:0] $end
$var reg 32 > rt_r[31:0] $end
$var reg 32 ? r_rt[31:0] $end
$var reg 32 @ ex16_2_r[31:0] $end
$var reg 32 A r_ex16_2[31:0] $end
$var reg 32 B aluout_r[31:0] $end
$var reg 32 C r_aluout[31:0] $end
$var reg 32 D rtdata_r[31:0] $end
$var reg 32 E r_rtdata[31:0] $end
$var reg 32 F regwdata[31:0] $end
$scope module m1 $end
$var reg 1 G clk $end
$var reg 1 H rst $end
$var reg 2 I adsel_ctrl[1:0] $end
$var reg 2 J hactrl[1:0] $end
$var reg 32 K extend16[31:0] $end
$var reg 28 L extend26[27:0] $end
$var reg 32 M inst[31:0] $end
$var reg 32 N pc_im[31:0] $end
$var reg 32 O adder_adsel[31:0] $end
$var reg 32 P adsel_pc[31:0] $end
$scope module m1 $end
$var reg 1 Q clk $end
$var reg 1 R rst $end
$var reg 32 S next_address[31:0] $end
$var reg 32 T address[31:0] $end
$upscope $end
$scope module m2 $end
$var reg 5 U address[4:0] $end
$var reg 32 V inst[31:0] $end
$upscope $end
$scope module m3 $end
$var reg 32 W address[31:0] $end
$var reg 32 X pc4[31:0] $end
$upscope $end
$scope module m4 $end
$var reg 2 Y adsel_ctrl[1:0] $end
$var reg 2 Z hactrl[1:0] $end
$var reg 28 [ extend26[27:0] $end
$var reg 32 \ pc4[31:0] $end
$var reg 32 ] extend16[31:0] $end
$var reg 32 ^ next_address[31:0] $end
$upscope $end
$upscope $end
$scope module m2 $end
$var reg 1 _ clk $end
$var reg 1 ` rst $end
$var reg 32 a in32[31:0] $end
$var reg 32 b out32[31:0] $end
$upscope $end
$scope module m3 $end
$var reg 1 c clk $end
$var reg 1 d rst $end
$var reg 1 e regwe $end
$var reg 5 f wad[4:0] $end
$var reg 32 g inst[31:0] $end
$var reg 32 h wdata[31:0] $end
$var reg 2 i hactrl[1:0] $end
$var reg 5 j rtad[4:0] $end
$var reg 5 k rdad[4:0] $end
$var reg 5 l shamt[4:0] $end
$var reg 9 m ctrlout[8:0] $end
$var reg 28 n ex26[27:0] $end
$var reg 32 o rs[31:0] $end
$var reg 32 p rt[31:0] $end
$var reg 32 q ex16_1[31:0] $end
$var reg 32 r ex16_2[31:0] $end
$var reg 32 s stout[31:0] $end
$var reg 2 t hazard[1:0] $end
$var reg 2 u stallflag[1:0] $end
$var reg 32 v stallout[31:0] $end
$scope module m1 $end
$var reg 32 w inst[31:0] $end
$var reg 2 x inhactrl[1:0] $end
$var reg 2 y inflag[1:0] $end
$var reg 2 z outflag[1:0] $end
$var reg 2 { outhactrl[1:0] $end
$var reg 32 | instout[31:0] $end
$var reg 5 } brt[4:0] $end
$var reg 5 !" brd[4:0] $end
$var reg 6 "" bopcd[5:0] $end
$upscope $end
$scope module m2 $end
$var reg 1 #" clk $end
$var reg 1 $" rst $end
$var reg 1 %" we $end
$var reg 5 &" wad[4:0] $end
$var reg 5 '" rad1[4:0] $end
$var reg 5 (" rad2[4:0] $end
$var reg 32 )" indata[31:0] $end
$var reg 32 *" out1[31:0] $end
$var reg 32 +" out2[31:0] $end
$comment regdata is not handled $end
$upscope $end
$scope module m3 $end
$var reg 1 ," clk $end
$var reg 1 -" rst $end
$var reg 5 ." in5[4:0] $end
$var reg 5 /" out5[4:0] $end
$upscope $end
$scope module m4 $end
$var reg 1 0" clk $end
$var reg 1 1" rst $end
$var reg 5 2" in5[4:0] $end
$var reg 5 3" out5[4:0] $end
$upscope $end
$scope module m5 $end
$var reg 1 4" clk $end
$var reg 1 5" rst $end
$var reg 16 6" in16[15:0] $end
$var reg 32 7" out1[31:0] $end
$var reg 32 8" out2[31:0] $end
$upscope $end
$scope module m6 $end
$var reg 1 9" clk $end
$var reg 1 :" rst $end
$var reg 26 ;" in26[25:0] $end
$var reg 28 <" out32[27:0] $end
$upscope $end
$scope module m7 $end
$var reg 1 =" clk $end
$var reg 1 >" rst $end
$var reg 5 ?" in5[4:0] $end
$var reg 5 @" out5[4:0] $end
$upscope $end
$scope module m8 $end
$var reg 1 A" clk $end
$var reg 1 B" rst $end
$var reg 6 C" opcode[5:0] $end
$var reg 6 D" funct[5:0] $end
$var reg 9 E" ctrl[8:0] $end
$upscope $end
$upscope $end
$scope module m4 $end
$var reg 1 F" clk $end
$var reg 1 G" rst $end
$var reg 28 H" in28[27:0] $end
$var reg 28 I" out28[27:0] $end
$upscope $end
$scope module m5 $end
$var reg 1 J" clk $end
$var reg 1 K" rst $end
$var reg 32 L" in32[31:0] $end
$var reg 32 M" out32[31:0] $end
$upscope $end
$scope module m6 $end
$var reg 1 N" clk $end
$var reg 1 O" rst $end
$var reg 32 P" in32[31:0] $end
$var reg 32 Q" out32[31:0] $end
$upscope $end
$scope module m7 $end
$var reg 1 R" clk $end
$var reg 1 S" rst $end
$var reg 32 T" in32[31:0] $end
$var reg 32 U" out32[31:0] $end
$upscope $end
$scope module m8 $end
$var reg 1 V" clk $end
$var reg 1 W" rst $end
$var reg 5 X" in5[4:0] $end
$var reg 5 Y" out5[4:0] $end
$upscope $end
$scope module m9 $end
$var reg 1 Z" clk $end
$var reg 1 [" rst $end
$var reg 5 \" in5[4:0] $end
$var reg 5 ]" out5[4:0] $end
$upscope $end
$scope module m10 $end
$var reg 1 ^" clk $end
$var reg 1 _" rst $end
$var reg 5 `" in5[4:0] $end
$var reg 5 a" out5[4:0] $end
$upscope $end
$scope module m11 $end
$var reg 1 b" clk $end
$var reg 1 c" rst $end
$var reg 9 d" in9[8:0] $end
$var reg 9 e" out9[8:0] $end
$upscope $end
$scope module m12 $end
$var reg 1 f" rst $end
$var reg 5 g" rtad[4:0] $end
$var reg 5 h" rdad[4:0] $end
$var reg 5 i" shamt[4:0] $end
$var reg 9 j" ctrlout[8:0] $end
$var reg 32 k" rsdata[31:0] $end
$var reg 32 l" rtdata[31:0] $end
$var reg 32 m" ex16[31:0] $end
$var reg 2 n" adsel_ctrl[1:0] $end
$var reg 3 o" ctrlout_3[2:0] $end
$var reg 5 p" wad[4:0] $end
$var reg 32 q" aluout[31:0] $end
$var reg 32 r" exout_rtdata[31:0] $end
$var reg 32 s" mux_alu[31:0] $end
$scope module m1 $end
$var reg 1 t" rst $end
$var reg 4 u" aluctrl[3:0] $end
$var reg 5 v" shamt[4:0] $end
$var reg 32 w" in1[31:0] $end
$var reg 32 x" in2[31:0] $end
$var reg 2 y" adsel_ctrl[1:0] $end
$var reg 32 z" aluout[31:0] $end
$upscope $end
$scope module m2 $end
$var reg 1 {" sel $end
$var reg 32 |" in0[31:0] $end
$var reg 32 }" in1[31:0] $end
$var reg 32 !# out1[31:0] $end
$upscope $end
$scope module m3 $end
$var reg 1 "# sel $end
$var reg 5 ## in0[4:0] $end
$var reg 5 $# in1[4:0] $end
$var reg 5 %# out1[4:0] $end
$upscope $end
$upscope $end
$scope module m13 $end
$var reg 1 &# clk $end
$var reg 1 '# rst $end
$var reg 32 (# in32[31:0] $end
$var reg 32 )# out32[31:0] $end
$upscope $end
$scope module m14 $end
$var reg 1 *# clk $end
$var reg 1 +# rst $end
$var reg 32 ,# in32[31:0] $end
$var reg 32 -# out32[31:0] $end
$upscope $end
$scope module m15 $end
$var reg 1 .# clk $end
$var reg 1 /# rst $end
$var reg 5 0# in5[4:0] $end
$var reg 5 1# out5[4:0] $end
$upscope $end
$scope module m16 $end
$var reg 1 2# clk $end
$var reg 1 3# rst $end
$var reg 3 4# in3[2:0] $end
$var reg 3 5# out3[2:0] $end
$upscope $end
$scope module m17 $end
$var reg 1 6# clk $end
$var reg 1 7# rst $end
$var reg 5 8# wad[4:0] $end
$var reg 3 9# ctrlout_3[2:0] $end
$var reg 32 :# aluout[31:0] $end
$var reg 32 ;# rtdata[31:0] $end
$var reg 1 <# regwe $end
$var reg 5 =# regwad[4:0] $end
$var reg 32 ># outdata[31:0] $end
$var reg 1 ?# r3_mux $end
$var reg 32 @# dm_r[31:0] $end
$var reg 32 A# r_mux[31:0] $end
$var reg 32 B# r1_mux[31:0] $end
$scope module m1 $end
$var reg 1 C# clk $end
$var reg 1 D# rst $end
$var reg 1 E# we $end
$var reg 5 F# address[4:0] $end
$var reg 32 G# indata[31:0] $end
$var reg 32 H# outdata[31:0] $end
$comment memdata is not handled $end
$upscope $end
$scope module m3 $end
$var reg 1 I# sel $end
$var reg 32 J# in0[31:0] $end
$var reg 32 K# in1[31:0] $end
$var reg 32 L# out1[31:0] $end
$upscope $end
$scope module m4 $end
$var reg 1 M# clk $end
$var reg 1 N# rst $end
$var reg 5 O# in5[4:0] $end
$var reg 5 P# out5[4:0] $end
$upscope $end
$scope module m5 $end
$var reg 1 Q# clk $end
$var reg 1 R# rst $end
$var reg 32 S# in32[31:0] $end
$var reg 32 T# out32[31:0] $end
$upscope $end
$scope module m6 $end
$var reg 1 U# clk $end
$var reg 1 V# rst $end
$var reg 1 W# in1 $end
$var reg 1 X# out1 $end
$upscope $end
$scope module m7 $end
$var reg 1 Y# clk $end
$var reg 1 Z# rst $end
$var reg 1 [# in1 $end
$var reg 1 \# out1 $end
$upscope $end
$upscope $end
$upscope $end
$enddefinitions $end
#0
0!
0"
b00000000000000000000000000000000 #
0$
0%
b00000000000000000000000000000000 &
0'
b00 (
b00 )
b000 *
b000 +
b00000 ,
b00000 -
b00000 .
b00000 /
b00000 0
b00000 1
b00000 2
b00000 3
b00000 4
b000000000 5
b000000000 6
b0000000000000000000000000000 7
b0000000000000000000000000000 8
b00000000000000000000000000000000 9
b00000100000000000000000000000000 :
b00000000000000000000000000000000 ;
b00000000000000000000000000000000 <
b00000000000000000000000000000000 =
b00000000000000000000000000000000 >
b00000000000000000000000000000000 ?
b00000000000000000000000000000000 @
b00000000000000000000000000000000 A
b00000000000000000000000000000000 B
b00000000000000000000000000000000 C
b00000000000000000000000000000000 D
b00000000000000000000000000000000 E
b00000000000000000000000000000000 F
0G
0H
b00 I
b00 J
b00000000000000000000000000000000 K
b0000000000000000000000000000 L
b00000100000000000000000000000000 M
b00000000000000000000000000000000 N
b00000000000000000000000000000100 O
b00000000000000000000000000000100 P
0Q
0R
b00000000000000000000000000000100 S
b00000000000000000000000000000000 T
b00000 U
b00000100000000000000000000000000 V
b00000000000000000000000000000000 W
b00000000000000000000000000000100 X
b00 Y
b00 Z
b0000000000000000000000000000 [
b00000000000000000000000000000100 \
b00000000000000000000000000000000 ]
b00000000000000000000000000000100 ^
0_
0`
b00000100000000000000000000000000 a
b00000000000000000000000000000000 b
0c
0d
0e
b00000 f
b00000000000000000000000000000000 g
b00000000000000000000000000000000 h
b00 i
b00000 j
b00000 k
b00000 l
b000000000 m
b0000000000000000000000000000 n
b00000000000000000000000000000000 o
b00000000000000000000000000000000 p
b00000000000000000000000000000000 q
b00000000000000000000000000000000 r
b00000000000000000000000000000000 s
b00 t
b00 u
b00000000000000000000000000000000 v
b00000000000000000000000000000000 w
b00 x
b00 y
b00 z
b00 {
b00000000000000000000000000000000 |
b00000 }
b00000 !"
b000000 ""
0#"
0$"
0%"
b00000 &"
b00000 '"
b00000 ("
b00000000000000000000000000000000 )"
b00000000000000000000000000000000 *"
b00000000000000000000000000000000 +"
0,"
0-"
b00000 ."
b00000 /"
00"
01"
b00000 2"
b00000 3"
04"
05"
b0000000000000000 6"
b00000000000000000000000000000000 7"
b00000000000000000000000000000000 8"
09"
0:"
b00000000000000000000000000 ;"
b0000000000000000000000000000 <"
0="
0>"
b00000 ?"
b00000 @"
0A"
0B"
b000000 C"
b000000 D"
b000000000 E"
0F"
0G"
b0000000000000000000000000000 H"
b0000000000000000000000000000 I"
0J"
0K"
b00000000000000000000000000000000 L"
b00000000000000000000000000000000 M"
0N"
0O"
b00000000000000000000000000000000 P"
b00000000000000000000000000000000 Q"
0R"
0S"
b00000000000000000000000000000000 T"
b00000000000000000000000000000000 U"
0V"
0W"
b00000 X"
b00000 Y"
0Z"
0["
b00000 \"
b00000 ]"
0^"
0_"
b00000 `"
b00000 a"
0b"
0c"
b000000000 d"
b000000000 e"
0f"
b00000 g"
b00000 h"
b00000 i"
b000000000 j"
b00000000000000000000000000000000 k"
b00000000000000000000000000000000 l"
b00000000000000000000000000000000 m"
b00 n"
b000 o"
b00000 p"
b00000000000000000000000000000000 q"
b00000000000000000000000000000000 r"
b00000000000000000000000000000000 s"
0t"
b0000 u"
b00000 v"
b00000000000000000000000000000000 w"
b00000000000000000000000000000000 x"
b00 y"
b00000000000000000000000000000000 z"
0{"
b00000000000000000000000000000000 |"
b00000000000000000000000000000000 }"
b00000000000000000000000000000000 !#
0"#
b00000 ##
b00000 $#
b00000 %#
0&#
0'#
b00000000000000000000000000000000 (#
b00000000000000000000000000000000 )#
0*#
0+#
b00000000000000000000000000000000 ,#
b00000000000000000000000000000000 -#
0.#
0/#
b00000 0#
b00000 1#
02#
03#
b000 4#
b000 5#
06#
07#
b00000 8#
b000 9#
b00000000000000000000000000000000 :#
b00000000000000000000000000000000 ;#
0<#
b00000 =#
b00000000000000000000000000000000 >#
0?#
b00000000000000000000000000000000 @#
bUUUUUUUUUUUUUUUUUUUUUUUUUUUUUUUU A#
b00000000000000000000000000000000 B#
0C#
0D#
0E#
b00000 F#
b00000000000000000000000000000000 G#
b00000000000000000000000000000000 H#
0I#
b00000000000000000000000000000000 J#
b00000000000000000000000000000000 K#
b00000000000000000000000000000000 L#
0M#
0N#
b00000 O#
b00000 P#
0Q#
0R#
b00000000000000000000000000000000 S#
b00000000000000000000000000000000 T#
0U#
0V#
0W#
0X#
0Y#
0Z#
0[#
0\#
#20000000
#100000000
1!
1$
1G
1Q
1_
1c
1#"
1,"
10"
14"
19"
1="
1A"
1F"
1J"
1N"
1R"
1V"
1Z"
1^"
1b"
1&#
1*#
1.#
12#
16#
1C#
1M#
1Q#
1U#
1Y#
#200000000
0!
0$
0G
0Q
0_
0c
0#"
0,"
00"
04"
09"
0="
0A"
0F"
0J"
0N"
0R"
0V"
0Z"
0^"
0b"
0&#
0*#
0.#
02#
06#
0C#
0M#
0Q#
0U#
0Y#
#220000000
1"
1%
1H
1R
1`
1d
1$"
1-"
11"
15"
1:"
1>"
1B"
1G"
1K"
1O"
1S"
1W"
1["
1_"
1c"
1f"
1t"
1'#
1+#
1/#
13#
17#
1D#
1N#
1R#
1V#
1Z#
#300000000
1!
1$
b10001100000000010000000000000001 :
b00000100000000000000000000000000 ;
1G
b10001100000000010000000000000001 M
b00000000000000000000000000000100 N
b00000000000000000000000000001000 O
b00000000000000000000000000001000 P
1Q
b00000000000000000000000000001000 S
b00000000000000000000000000000100 T
b00001 U
b10001100000000010000000000000001 V
b00000000000000000000000000000100 W
b00000000000000000000000000001000 X
b00000000000000000000000000001000 \
b00000000000000000000000000001000 ^
1_
b10001100000000010000000000000001 a
b00000100000000000000000000000000 b
1c
b00000100000000000000000000000000 g
b00000100000000000000000000000000 s
b00000100000000000000000000000000 v
b00000100000000000000000000000000 w
b00000100000000000000000000000000 |
b000001 ""
1#"
1,"
10"
14"
19"
1="
1A"
b000001 C"
1F"
1J"
1N"
1R"
1V"
1Z"
1^"
1b"
1&#
1*#
1.#
12#
16#
1C#
1M#
1Q#
1U#
1Y#
#400000000
0!
0$
0G
0Q
0_
0c
0#"
0,"
00"
04"
09"
0="
0A"
0F"
0J"
0N"
0R"
0V"
0Z"
0^"
0b"
0&#
0*#
0.#
02#
06#
0C#
0M#
0Q#
0U#
0Y#
#420000000
#500000000
1!
1$
b10001100000000100000000000000010 :
b10001100000000010000000000000001 ;
1G
b10001100000000100000000000000010 M
b00000000000000000000000000001000 N
b00000000000000000000000000001100 O
b00000000000000000000000000001100 P
1Q
b00000000000000000000000000001100 S
b00000000000000000000000000001000 T
b00010 U
b10001100000000100000000000000010 V
b00000000000000000000000000001000 W
b00000000000000000000000000001100 X
b00000000000000000000000000001100 \
b00000000000000000000000000001100 ^
1_
b10001100000000100000000000000010 a
b10001100000000010000000000000001 b
1c
b10001100000000010000000000000001 g
b10001100000000010000000000000001 s
b10001100000000010000000000000001 v
b10001100000000010000000000000001 w
b10001100000000010000000000000001 |
b00001 }
b100011 ""
1#"
b00001 ("
1,"
b00001 ."
10"
14"
b0000000000000001 6"
19"
b00000000010000000000000001 ;"
1="
1A"
b100011 C"
b000001 D"
1F"
1J"
1N"
1R"
1V"
1Z"
1^"
1b"
1&#
1*#
1.#
12#
16#
1C#
1M#
1Q#
1U#
1Y#
#600000000
0!
0$
0G
0Q
0_
0c
0#"
0,"
00"
04"
09"
0="
0A"
0F"
0J"
0N"
0R"
0V"
0Z"
0^"
0b"
0&#
0*#
0.#
02#
06#
0C#
0M#
0Q#
0U#
0Y#
#700000000
1!
1$
b00001 -
b100100001 5
b0000000001000000000000000100 7
b00000000000000000000000000000100 9
b10001100000000110000000000000011 :
b10001100000000100000000000000010 ;
b00000000000000000000000000000001 @
1G
b00000000000000000000000000000100 K
b10001100000000110000000000000011 M
b00000000000000000000000000001100 N
b00000000000000000000000000010000 O
b00000000000000000000000000010000 P
1Q
b00000000000000000000000000010000 S
b00000000000000000000000000001100 T
b00011 U
b10001100000000110000000000000011 V
b00000000000000000000000000001100 W
b00000000000000000000000000010000 X
b00000000000000000000000000010000 \
b00000000000000000000000000000100 ]
b00000000000000000000000000010000 ^
1_
b10001100000000110000000000000011 a
b10001100000000100000000000000010 b
1c
b10001100000000100000000000000010 g
b00001 j
b100100001 m
b0000000001000000000000000100 n
b00000000000000000000000000000100 q
b00000000000000000000000000000001 r
b10001100000000100000000000000010 s
b10001100000000100000000000000010 v
b10001100000000100000000000000010 w
b10001100000000100000000000000010 |
b00010 }
1#"
b00010 ("
1,"
b00010 ."
b00001 /"
10"
14"
b0000000000000010 6"
b00000000000000000000000000000100 7"
b00000000000000000000000000000001 8"
19"
b00000000100000000000000010 ;"
b0000000001000000000000000100 <"
1="
1A"
b000010 D"
b100100001 E"
1F"
b0000000001000000000000000100 H"
1J"
1N"
1R"
b00000000000000000000000000000001 T"
1V"
b00001 X"
1Z"
1^"
1b"
b100100001 d"
1&#
1*#
1.#
12#
16#
1C#
1M#
1Q#
1U#
1Y#
#800000000
0!
0$
0G
0Q
0_
0c
0#"
0,"
00"
04"
09"
0="
0A"
0F"
0J"
0N"
0R"
0V"
0Z"
0^"
0b"
0&#
0*#
0.#
02#
06#
0C#
0M#
0Q#
0U#
0Y#
#900000000
1!
1$
b001 *
b00010 -
b00001 .
b00001 3
b100100001 6
b0000000010000000000000001000 7
b0000000001000000000000000100 8
b00000000000000000000000000001000 9
b10001100000001000000000000000100 :
b10001100000000110000000000000011 ;
b00000000000000000000000000000010 @
b00000000000000000000000000000001 A
b00000000000000000000000000000001 B
1G
b00000000000000000000000000001000 K
b0000000001000000000000000100 L
b10001100000001000000000000000100 M
b00000000000000000000000000010000 N
b00000000000000000000000000010100 O
b00000000000000000000000000010100 P
1Q
b00000000000000000000000000010100 S
b00000000000000000000000000010000 T
b00100 U
b10001100000001000000000000000100 V
b00000000000000000000000000010000 W
b00000000000000000000000000010100 X
b0000000001000000000000000100 [
b00000000000000000000000000010100 \
b00000000000000000000000000001000 ]
b00000000000000000000000000010100 ^
1_
b10001100000001000000000000000100 a
b10001100000000110000000000000011 b
1c
b10001100000000110000000000000011 g
b00010 j
b0000000010000000000000001000 n
b00000000000000000000000000001000 q
b00000000000000000000000000000010 r
b10001100000000110000000000000011 s
b10001100000000110000000000000011 v
b10001100000000110000000000000011 w
b10001100000000110000000000000011 |
b00011 }
1#"
b00011 ("
1,"
b00011 ."
b00010 /"
10"
14"
b0000000000000011 6"
b00000000000000000000000000001000 7"
b00000000000000000000000000000010 8"
19"
b00000000110000000000000011 ;"
b0000000010000000000000001000 <"
1="
1A"
b000011 D"
1F"
b0000000010000000000000001000 H"
b0000000001000000000000000100 I"
1J"
1N"
1R"
b00000000000000000000000000000010 T"
b00000000000000000000000000000001 U"
1V"
b00010 X"
b00001 Y"
1Z"
1^"
1b"
b100100001 e"
b00001 g"
b100100001 j"
b00000000000000000000000000000001 m"
b001 o"
b00001 p"
b00000000000000000000000000000001 q"
b00000000000000000000000000000001 s"
b0100 u"
b00000000000000000000000000000001 x"
b00000000000000000000000000000001 z"
1{"
b00000000000000000000000000000001 }"
b00000000000000000000000000000001 !#
b00001 ##
b00001 %#
1&#
b00000000000000000000000000000001 (#
1*#
1.#
b00001 0#
12#
b001 4#
16#
1C#
1M#
1Q#
1U#
1Y#
#1000000000
0!
0$
0G
0Q
0_
0c
0#"
0,"
00"
04"
09"
0="
0A"
0F"
0J"
0N"
0R"
0V"
0Z"
0^"
0b"
0&#
0*#
0.#
02#
06#
0C#
0M#
0Q#
0U#
0Y#
#1100000000
1!
1$
b001 +
b00011 -
b00010 .
b00010 3
b00001 4
b0000000011000000000000001100 7
b0000000010000000000000001000 8
b00000000000000000000000000001100 9
b10001100000001010000000000000101 :
b10001100000001000000000000000100 ;
b00000000000000000000000000000011 @
b00000000000000000000000000000010 A
b00000000000000000000000000000010 B
b00000000000000000000000000000001 C
1G
b00000000000000000000000000001100 K
b0000000010000000000000001000 L
b10001100000001010000000000000101 M
b00000000000000000000000000010100 N
b00000000000000000000000000011000 O
b00000000000000000000000000011000 P
1Q
b00000000000000000000000000011000 S
b00000000000000000000000000010100 T
b00101 U
b10001100000001010000000000000101 V
b00000000000000000000000000010100 W
b00000000000000000000000000011000 X
b0000000010000000000000001000 [
b00000000000000000000000000011000 \
b00000000000000000000000000001100 ]
b00000000000000000000000000011000 ^
1_
b10001100000001010000000000000101 a
b10001100000001000000000000000100 b
1c
b10001100000001000000000000000100 g
b00011 j
b0000000011000000000000001100 n
b00000000000000000000000000001100 q
b00000000000000000000000000000011 r
b10001100000001000000000000000100 s
b10001100000001000000000000000100 v
b10001100000001000000000000000100 w
b10001100000001000000000000000100 |
b00100 }
1#"
b00100 ("
1,"
b00100 ."
b00011 /"
10"
14"
b0000000000000100 6"
b00000000000000000000000000001100 7"
b00000000000000000000000000000011 8"
19"
b00000001000000000000000100 ;"
b0000000011000000000000001100 <"
1="
1A"
b000100 D"
1F"
b0000000011000000000000001100 H"
b0000000010000000000000001000 I"
1J"
1N"
1R"
b00000000000000000000000000000011 T"
b00000000000000000000000000000010 U"
1V"
b00011 X"
b00010 Y"
1Z"
1^"
1b"
b00010 g"
b00000000000000000000000000000010 m"
b00010 p"
b00000000000000000000000000000010 q"
b00000000000000000000000000000010 s"
b00000000000000000000000000000010 x"
b00000000000000000000000000000010 z"
b00000000000000000000000000000010 }"
b00000000000000000000000000000010 !#
b00010 ##
b00010 %#
1&#
b00000000000000000000000000000010 (#
b00000000000000000000000000000001 )#
1*#
1.#
b00010 0#
b00001 1#
12#
b001 5#
16#
b00001 8#
b001 9#
b00000000000000000000000000000001 :#
1C#
b00001 F#
1M#
b00001 O#
1Q#
b00000000000000000000000000000001 S#
1U#
1Y#
1[#
#1200000000
0!
0$
0G
0Q
0_
0c
0#"
0,"
00"
04"
09"
0="
0A"
0F"
0J"
0N"
0R"
0V"
0Z"
0^"
0b"
0&#
0*#
0.#
02#
06#
0C#
0M#
0Q#
0U#
0Y#
#1300000000
1!
b00000000000000000000000000000001 #
1$
b00000000000000000000000000000001 &
1'
b00001 ,
b00100 -
b00011 .
b00011 3
b00010 4
b0000000100000000000000010000 7
b0000000011000000000000001100 8
b00000000000000000000000000010000 9
b10001100000001100000000000000110 :
b10001100000001010000000000000101 ;
b00000000000000000000000000000100 @
b00000000000000000000000000000011 A
b00000000000000000000000000000011 B
b00000000000000000000000000000010 C
b00000000000000000000000000000001 F
1G
b00000000000000000000000000010000 K
b0000000011000000000000001100 L
b10001100000001100000000000000110 M
b00000000000000000000000000011000 N
b00000000000000000000000000011100 O
b00000000000000000000000000011100 P
1Q
b00000000000000000000000000011100 S
b00000000000000000000000000011000 T
b00110 U
b10001100000001100000000000000110 V
b00000000000000000000000000011000 W
b00000000000000000000000000011100 X
b0000000011000000000000001100 [
b00000000000000000000000000011100 \
b00000000000000000000000000010000 ]
b00000000000000000000000000011100 ^
1_
b10001100000001100000000000000110 a
b10001100000001010000000000000101 b
1c
1e
b00001 f
b10001100000001010000000000000101 g
b00000000000000000000000000000001 h
b00100 j
b0000000100000000000000010000 n
b00000000000000000000000000010000 q
b00000000000000000000000000000100 r
b10001100000001010000000000000101 s
b10001100000001010000000000000101 v
b10001100000001010000000000000101 w
b10001100000001010000000000000101 |
b00101 }
1#"
1%"
b00001 &"
b00101 ("
b00000000000000000000000000000001 )"
1,"
b00101 ."
b00100 /"
10"
14"
b0000000000000101 6"
b00000000000000000000000000010000 7"
b00000000000000000000000000000100 8"
19"
b00000001010000000000000101 ;"
b0000000100000000000000010000 <"
1="
1A"
b000101 D"
1F"
b0000000100000000000000010000 H"
b0000000011000000000000001100 I"
1J"
1N"
1R"
b00000000000000000000000000000100 T"
b00000000000000000000000000000011 U"
1V"
b00100 X"
b00011 Y"
1Z"
1^"
1b"
b00011 g"
b00000000000000000000000000000011 m"
b00011 p"
b00000000000000000000000000000011 q"
b00000000000000000000000000000011 s"
b00000000000000000000000000000011 x"
b00000000000000000000000000000011 z"
b00000000000000000000000000000011 }"
b00000000000000000000000000000011 !#
b00011 ##
b00011 %#
1&#
b00000000000000000000000000000011 (#
b00000000000000000000000000000010 )#
1*#
1.#
b00011 0#
b00010 1#
12#
16#
b00010 8#
b00000000000000000000000000000010 :#
1<#
b00001 =#
b00000000000000000000000000000001 >#
b00000000000000000000000000000001 @#
b00000000000000000000000000000001 B#
1C#
b00010 F#
b00000000000000000000000000000001 H#
b00000000000000000000000000000001 J#
b00000000000000000000000000000001 K#
b00000000000000000000000000000001 L#
1M#
b00010 O#
b00001 P#
1Q#
b00000000000000000000000000000010 S#
b00000000000000000000000000000001 T#
1U#
1Y#
1\#
#1400000000
0!
0$
0G
0Q
0_
0c
0#"
0,"
00"
04"
09"
0="
0A"
0F"
0J"
0N"
0R"
0V"
0Z"
0^"
0b"
0&#
0*#
0.#
02#
06#
0C#
0M#
0Q#
0U#
0Y#
