PipelineCPU/vcdfile/regfile.vcd
$date
  Tue Jan 23 12:53:51 2018
$end
$version
  GHDL v0
$end
$timescale
  1 fs
$end
$var reg 1 ! clk $end
$var reg 1 " rst $end
$var reg 1 # we $end
$var reg 5 $ wad[4:0] $end
$var reg 5 % rad1[4:0] $end
$var reg 5 & rad2[4:0] $end
$var reg 32 ' indata[31:0] $end
$var reg 32 ( out1[31:0] $end
$var reg 32 ) out2[31:0] $end
$scope module dut $end
$var reg 1 * clk $end
$var reg 1 + rst $end
$var reg 1 , we $end
$var reg 5 - wad[4:0] $end
$var reg 5 . rad1[4:0] $end
$var reg 5 / rad2[4:0] $end
$var reg 32 0 indata[31:0] $end
$var reg 32 1 out1[31:0] $end
$var reg 32 2 out2[31:0] $end
$comment regdata is not handled $end
$upscope $end
$enddefinitions $end
#0
0!
0"
0#
b00001 $
b00001 %
b00010 &
b11001100110011000011001100110011 '
b00000000000000000000000000000000 (
b00000000000000000000000000000000 )
0*
0+
0,
b00001 -
b00001 .
b00010 /
b11001100110011000011001100110011 0
b00000000000000000000000000000000 1
b00000000000000000000000000000000 2
#20000000
#100000000
1!
1*
#200000000
0!
0*
#220000000
1"
b00010 %
b00011 &
1+
b00010 .
b00011 /
#300000000
1!
1*
#400000000
0!
0*
#420000000
1#
b00001 %
b00100 &
1,
b00001 .
b00100 /
#500000000
1!
b11001100110011000011001100110011 (
1*
b11001100110011000011001100110011 1
#600000000
0!
0*
#620000000
b10010 $
b10010 %
b00001 &
b00000000000000000001000100010001 '
b10010 -
b10010 .
b00001 /
b00000000000000000001000100010001 0
#700000000
1!
b00000000000000000001000100010001 (
b11001100110011000011001100110011 )
1*
b00000000000000000001000100010001 1
b11001100110011000011001100110011 2
#800000000
0!
0*
#820000000
0"
b10000 $
b10000 %
b10010 &
b10101010101010100000000000000000 '
b00000000000000000000000000000000 (
b00000000000000000000000000000000 )
0+
b10000 -
b10000 .
b10010 /
b10101010101010100000000000000000 0
b00000000000000000000000000000000 1
b00000000000000000000000000000000 2
#900000000
1!
1*
#1000000000
0!
0*
#1020000000
1"
b11111 $
b11111 %
b10000 &
b10111011101110110000000000000000 '
1+
b11111 -
b11111 .
b10000 /
b10111011101110110000000000000000 0
#1100000000
1!
b10111011101110110000000000000000 (
1*
b10111011101110110000000000000000 1
#1200000000
0!
0*
#1220000000
b00000 $
b00000 %
b11111 &
b00010001000100010001000100010001 '
b00000 -
b00000 .
b11111 /
b00010001000100010001000100010001 0
#1300000000
1!
b10111011101110110000000000000000 )
1*
b10111011101110110000000000000000 2
#1400000000
0!
0*
#1420000000
0#
b01100 $
b00001 %
b00000 &
b00100010001000100101010101010101 '
0,
b01100 -
b00001 .
b00000 /
b00100010001000100101010101010101 0
#1500000000
1!
b00000000000000000000000000000000 (
b00000000000000000000000000000000 )
1*
b00000000000000000000000000000000 1
b00000000000000000000000000000000 2
