PCPU/vcdfile/pcpu.vcd
$date
  Thu Oct 26 21:51:44 2017
$end
$version
  GHDL v0
$end
$timescale
  1 fs
$end
$var reg 1 ! clk $end
$var reg 1 " rst $end
$var reg 32 # outdata[31:0] $end
$var reg 32 $ instout[31:0] $end
$scope module dut $end
$var reg 1 % clk $end
$var reg 1 & rst $end
$var reg 32 ' outdata[31:0] $end
$var reg 32 ( instout[31:0] $end
$var reg 1 ) regwe $end
$var reg 2 * adsel_ctrl[1:0] $end
$var reg 2 + hactrl[1:0] $end
$var reg 3 , ctrlout_3_r[2:0] $end
$var reg 3 - r_ctrlout_3[2:0] $end
$var reg 5 . regwad[4:0] $end
$var reg 5 / rtad_r[4:0] $end
$var reg 5 0 r_rtad[4:0] $end
$var reg 5 1 rdad_r[4:0] $end
$var reg 5 2 r_rdad[4:0] $end
$var reg 5 3 shamt_r[4:0] $end
$var reg 5 4 r_shamt[4:0] $end
$var reg 5 5 wad_r[4:0] $end
$var reg 5 6 r_wad[4:0] $end
$var reg 9 7 ctrl_r[8:0] $end
$var reg 9 8 r_ctrl[8:0] $end
$var reg 28 9 ex26[27:0] $end
$var reg 32 : ex16_1[31:0] $end
$var reg 32 ; inst_r[31:0] $end
$var reg 32 < r_inst[31:0] $end
$var reg 32 = rs_r[31:0] $end
$var reg 32 > r_rs[31:0] $end
$var reg 32 ? rt_r[31:0] $end
$var reg 32 @ r_rt[31:0] $end
$var reg 32 A ex16_2_r[31:0] $end
$var reg 32 B r_ex16_2[31:0] $end
$var reg 32 C aluout_r[31:0] $end
$var reg 32 D r_aluout[31:0] $end
$var reg 32 E rtdata_r[31:0] $end
$var reg 32 F r_rtdata[31:0] $end
$var reg 32 G regwdata[31:0] $end
$scope module m1 $end
$var reg 1 H clk $end
$var reg 1 I rst $end
$var reg 2 J adsel_ctrl[1:0] $end
$var reg 2 K hactrl[1:0] $end
$var reg 32 L extend16[31:0] $end
$var reg 28 M extend26[27:0] $end
$var reg 32 N inst[31:0] $end
$var reg 32 O pc_im[31:0] $end
$var reg 32 P adder_adsel[31:0] $end
$var reg 32 Q adsel_pc[31:0] $end
$scope module m1 $end
$var reg 1 R clk $end
$var reg 1 S rst $end
$var reg 32 T next_address[31:0] $end
$var reg 32 U address[31:0] $end
$upscope $end
$scope module m2 $end
$var reg 5 V address[4:0] $end
$var reg 32 W inst[31:0] $end
$upscope $end
$scope module m3 $end
$var reg 32 X address[31:0] $end
$var reg 32 Y pc4[31:0] $end
$upscope $end
$scope module m4 $end
$var reg 2 Z adsel_ctrl[1:0] $end
$var reg 2 [ hactrl[1:0] $end
$var reg 28 \ extend26[27:0] $end
$var reg 32 ] pc4[31:0] $end
$var reg 32 ^ extend16[31:0] $end
$var reg 32 _ next_address[31:0] $end
$upscope $end
$upscope $end
$scope module m2 $end
$var reg 1 ` clk $end
$var reg 1 a rst $end
$var reg 1 b regwe $end
$var reg 5 c wad[4:0] $end
$var reg 32 d inst[31:0] $end
$var reg 32 e wdata[31:0] $end
$var reg 2 f hactrl[1:0] $end
$var reg 5 g rtad[4:0] $end
$var reg 5 h rdad[4:0] $end
$var reg 5 i shamt[4:0] $end
$var reg 9 j ctrlout[8:0] $end
$var reg 28 k ex26[27:0] $end
$var reg 32 l rs[31:0] $end
$var reg 32 m rt[31:0] $end
$var reg 32 n ex16_1[31:0] $end
$var reg 32 o ex16_2[31:0] $end
$var reg 5 p rs_rf[4:0] $end
$var reg 5 q rt_rf[4:0] $end
$var reg 5 r rd_r[4:0] $end
$var reg 5 s stall_shamt[4:0] $end
$var reg 6 t stall_opcode[5:0] $end
$var reg 6 u stall_funct[5:0] $end
$var reg 16 v stall_ex16[15:0] $end
$var reg 26 w stall_ex26[25:0] $end
$scope module m1 $end
$var reg 32 x inst[31:0] $end
$var reg 2 y hactrl[1:0] $end
$var reg 5 z rs[4:0] $end
$var reg 5 { rt[4:0] $end
$var reg 5 | rd[4:0] $end
$var reg 5 } shamt[4:0] $end
$var reg 6 !" opcode[5:0] $end
$var reg 6 "" funct[5:0] $end
$var reg 16 #" extend16[15:0] $end
$var reg 26 $" extend26[25:0] $end
$upscope $end
$scope module m2 $end
$var reg 1 %" clk $end
$var reg 1 &" rst $end
$var reg 1 '" we $end
$var reg 5 (" wad[4:0] $end
$var reg 5 )" rad1[4:0] $end
$var reg 5 *" rad2[4:0] $end
$var reg 32 +" indata[31:0] $end
$var reg 32 ," out1[31:0] $end
$var reg 32 -" out2[31:0] $end
$comment regdata is not handled $end
$upscope $end
$scope module m3 $end
$var reg 1 ." clk $end
$var reg 1 /" rst $end
$var reg 5 0" in5[4:0] $end
$var reg 5 1" out5[4:0] $end
$upscope $end
$scope module m4 $end
$var reg 1 2" clk $end
$var reg 1 3" rst $end
$var reg 5 4" in5[4:0] $end
$var reg 5 5" out5[4:0] $end
$upscope $end
$scope module m5 $end
$var reg 1 6" clk $end
$var reg 1 7" rst $end
$var reg 16 8" in16[15:0] $end
$var reg 32 9" out1[31:0] $end
$var reg 32 :" out2[31:0] $end
$upscope $end
$scope module m6 $end
$var reg 1 ;" clk $end
$var reg 1 <" rst $end
$var reg 26 =" in26[25:0] $end
$var reg 28 >" out32[27:0] $end
$upscope $end
$scope module m7 $end
$var reg 1 ?" clk $end
$var reg 1 @" rst $end
$var reg 5 A" in5[4:0] $end
$var reg 5 B" out5[4:0] $end
$upscope $end
$scope module m8 $end
$var reg 1 C" clk $end
$var reg 1 D" rst $end
$var reg 6 E" opcode[5:0] $end
$var reg 6 F" funct[5:0] $end
$var reg 9 G" ctrl[8:0] $end
$upscope $end
$upscope $end
$scope module m3 $end
$var reg 1 H" rst $end
$var reg 5 I" rtad[4:0] $end
$var reg 5 J" rdad[4:0] $end
$var reg 5 K" shamt[4:0] $end
$var reg 9 L" ctrlout[8:0] $end
$var reg 32 M" rsdata[31:0] $end
$var reg 32 N" rtdata[31:0] $end
$var reg 32 O" ex16[31:0] $end
$var reg 2 P" adsel_ctrl[1:0] $end
$var reg 3 Q" ctrlout_3[2:0] $end
$var reg 5 R" wad[4:0] $end
$var reg 32 S" aluout[31:0] $end
$var reg 32 T" exout_rtdata[31:0] $end
$var reg 32 U" mux_alu[31:0] $end
$scope module m1 $end
$var reg 1 V" rst $end
$var reg 4 W" aluctrl[3:0] $end
$var reg 5 X" shamt[4:0] $end
$var reg 32 Y" in1[31:0] $end
$var reg 32 Z" in2[31:0] $end
$var reg 2 [" adsel_ctrl[1:0] $end
$var reg 32 \" aluout[31:0] $end
$upscope $end
$scope module m2 $end
$var reg 1 ]" sel $end
$var reg 32 ^" in0[31:0] $end
$var reg 32 _" in1[31:0] $end
$var reg 32 `" out1[31:0] $end
$upscope $end
$scope module m3 $end
$var reg 1 a" sel $end
$var reg 5 b" in0[4:0] $end
$var reg 5 c" in1[4:0] $end
$var reg 5 d" out1[4:0] $end
$upscope $end
$upscope $end
$scope module m4 $end
$var reg 1 e" clk $end
$var reg 1 f" rst $end
$var reg 5 g" wad[4:0] $end
$var reg 3 h" ctrlout_3[2:0] $end
$var reg 32 i" aluout[31:0] $end
$var reg 32 j" rtdata[31:0] $end
$var reg 1 k" regwe $end
$var reg 5 l" regwad[4:0] $end
$var reg 32 m" outdata[31:0] $end
$var reg 1 n" r3_mux $end
$var reg 32 o" dm_mux[31:0] $end
$var reg 32 p" r1_mux[31:0] $end
$scope module m1 $end
$var reg 1 q" clk $end
$var reg 1 r" rst $end
$var reg 1 s" we $end
$var reg 5 t" address[4:0] $end
$var reg 32 u" indata[31:0] $end
$var reg 32 v" outdata[31:0] $end
$comment memdata is not handled $end
$upscope $end
$scope module m2 $end
$var reg 1 w" sel $end
$var reg 32 x" in0[31:0] $end
$var reg 32 y" in1[31:0] $end
$var reg 32 z" out1[31:0] $end
$upscope $end
$scope module m3 $end
$var reg 1 {" clk $end
$var reg 1 |" rst $end
$var reg 5 }" in5[4:0] $end
$var reg 5 !# out5[4:0] $end
$upscope $end
$scope module m4 $end
$var reg 1 "# clk $end
$var reg 1 ## rst $end
$var reg 32 $# in32[31:0] $end
$var reg 32 %# out32[31:0] $end
$upscope $end
$scope module m5 $end
$var reg 1 &# clk $end
$var reg 1 '# rst $end
$var reg 1 (# in1 $end
$var reg 1 )# out1 $end
$upscope $end
$scope module m6 $end
$var reg 1 *# clk $end
$var reg 1 +# rst $end
$var reg 1 ,# in1 $end
$var reg 1 -# out1 $end
$upscope $end
$upscope $end
$upscope $end
$enddefinitions $end
#0
0!
0"
b00000000000000000000000000000000 #
bUUUUUUUUUUUUUUUUUUUUUUUUUUUUUUUU $
0%
0&
b00000000000000000000000000000000 '
b10001100000010100000000000000000 (
0)
b00 *
b00 +
bUUU ,
bUUU -
b00000 .
b00000 /
bUUUUU 0
b00000 1
bUUUUU 2
b00000 3
bUUUUU 4
bUUUUU 5
bUUUUU 6
b000000000 7
bUUUUUUUUU 8
b0000000000000000000000000000 9
b00000000000000000000000000000000 :
b10001100000010100000000000000000 ;
bUUUUUUUUUUUUUUUUUUUUUUUUUUUUUUUU <
b00000000000000000000000000000000 =
bUUUUUUUUUUUUUUUUUUUUUUUUUUUUUUUU >
b00000000000000000000000000000000 ?
bUUUUUUUUUUUUUUUUUUUUUUUUUUUUUUUU @
b00000000000000000000000000000000 A
bUUUUUUUUUUUUUUUUUUUUUUUUUUUUUUUU B
b00000000000000000000000000000000 C
bUUUUUUUUUUUUUUUUUUUUUUUUUUUUUUUU D
bUUUUUUUUUUUUUUUUUUUUUUUUUUUUUUUU E
bUUUUUUUUUUUUUUUUUUUUUUUUUUUUUUUU F
b00000000000000000000000000000000 G
0H
0I
b00 J
b00 K
b00000000000000000000000000000000 L
b0000000000000000000000000000 M
b10001100000010100000000000000000 N
b00000000000000000000000000000000 O
b00000000000000000000000000000100 P
b00000000000000000000000000000100 Q
0R
0S
b00000000000000000000000000000100 T
b00000000000000000000000000000000 U
b00000 V
b10001100000010100000000000000000 W
b00000000000000000000000000000000 X
b00000000000000000000000000000100 Y
b00 Z
b00 [
b0000000000000000000000000000 \
b00000000000000000000000000000100 ]
b00000000000000000000000000000000 ^
b00000000000000000000000000000100 _
0`
0a
0b
b00000 c
bUUUUUUUUUUUUUUUUUUUUUUUUUUUUUUUU d
b00000000000000000000000000000000 e
b00 f
b00000 g
b00000 h
b00000 i
b000000000 j
b0000000000000000000000000000 k
b00000000000000000000000000000000 l
b00000000000000000000000000000000 m
b00000000000000000000000000000000 n
b00000000000000000000000000000000 o
bUUUUU p
bUUUUU q
bUUUUU r
bUUUUU s
bUUUUUU t
bUUUUUU u
bUUUUUUUUUUUUUUUU v
bUUUUUUUUUUUUUUUUUUUUUUUUUU w
bUUUUUUUUUUUUUUUUUUUUUUUUUUUUUUUU x
b00 y
bUUUUU z
bUUUUU {
bUUUUU |
bUUUUU }
bUUUUUU !"
bUUUUUU ""
bUUUUUUUUUUUUUUUU #"
bUUUUUUUUUUUUUUUUUUUUUUUUUU $"
0%"
0&"
0'"
b00000 ("
bUUUUU )"
bUUUUU *"
b00000000000000000000000000000000 +"
b00000000000000000000000000000000 ,"
b00000000000000000000000000000000 -"
0."
0/"
bUUUUU 0"
b00000 1"
02"
03"
bUUUUU 4"
b00000 5"
06"
07"
bUUUUUUUUUUUUUUUU 8"
b00000000000000000000000000000000 9"
b00000000000000000000000000000000 :"
0;"
0<"
bUUUUUUUUUUUUUUUUUUUUUUUUUU ="
b0000000000000000000000000000 >"
0?"
0@"
bUUUUU A"
b00000 B"
0C"
0D"
bUUUUUU E"
bUUUUUU F"
b000000000 G"
0H"
bUUUUU I"
bUUUUU J"
bUUUUU K"
bUUUUUUUUU L"
bUUUUUUUUUUUUUUUUUUUUUUUUUUUUUUUU M"
bUUUUUUUUUUUUUUUUUUUUUUUUUUUUUUUU N"
bUUUUUUUUUUUUUUUUUUUUUUUUUUUUUUUU O"
b00 P"
bUUU Q"
bUUUUU R"
b00000000000000000000000000000000 S"
bUUUUUUUUUUUUUUUUUUUUUUUUUUUUUUUU T"
bUUUUUUUUUUUUUUUUUUUUUUUUUUUUUUUU U"
0V"
bUUUU W"
bUUUUU X"
bUUUUUUUUUUUUUUUUUUUUUUUUUUUUUUUU Y"
bUUUUUUUUUUUUUUUUUUUUUUUUUUUUUUUU Z"
b00 ["
b00000000000000000000000000000000 \"
U]"
bUUUUUUUUUUUUUUUUUUUUUUUUUUUUUUUU ^"
bUUUUUUUUUUUUUUUUUUUUUUUUUUUUUUUU _"
bUUUUUUUUUUUUUUUUUUUUUUUUUUUUUUUU `"
Ua"
bUUUUU b"
bUUUUU c"
bUUUUU d"
0e"
0f"
bUUUUU g"
bUUU h"
bUUUUUUUUUUUUUUUUUUUUUUUUUUUUUUUU i"
bUUUUUUUUUUUUUUUUUUUUUUUUUUUUUUUU j"
0k"
b00000 l"
b00000000000000000000000000000000 m"
0n"
b00000000000000000000000000000000 o"
b00000000000000000000000000000000 p"
0q"
0r"
Us"
bUUUUU t"
bUUUUUUUUUUUUUUUUUUUUUUUUUUUUUUUU u"
b00000000000000000000000000000000 v"
0w"
b00000000000000000000000000000000 x"
b00000000000000000000000000000000 y"
b00000000000000000000000000000000 z"
0{"
0|"
bUUUUU }"
b00000 !#
0"#
0##
bUUUUUUUUUUUUUUUUUUUUUUUUUUUUUUUU $#
b00000000000000000000000000000000 %#
0&#
0'#
U(#
0)#
0*#
0+#
U,#
0-#
#20000000
#100000000
1!
1%
1H
1R
1`
1%"
1."
12"
16"
1;"
1?"
1C"
1e"
1q"
1{"
1"#
1&#
1*#
#200000000
0!
0%
0H
0R
0`
0%"
0."
02"
06"
0;"
0?"
0C"
0e"
0q"
0{"
0"#
0&#
0*#
#220000000
1"
1&
1I
1S
1a
1&"
1/"
13"
17"
1<"
1@"
1D"
1H"
1V"
1f"
1r"
1|"
1##
1'#
1+#
#300000000
1!
bUUUUUUUUUUUUUUUUUUUUUUUUUUUUUUUU #
1%
bUUUUUUUUUUUUUUUUUUUUUUUUUUUUUUUU '
b10001100000010110000000000000100 (
U)
bUUUUU .
bUUUUU /
bUUUUU 1
bUUUUU 3
bUUUUUUUUUUUUUUUUUUUUUUUUUU00 9
b00000000000000UUUUUUUUUUUUUUUU00 :
b10001100000010110000000000000100 ;
b0000000000000000UUUUUUUUUUUUUUUU A
bUUUUUUUUUUUUUUUUUUUUUUUUUUUUUUUU G
1H
b00000000000000UUUUUUUUUUUUUUUU00 L
bUUUUUUUUUUUUUUUUUUUUUUUUUU00 M
b10001100000010110000000000000100 N
b00000000000000000000000000000100 O
b00000000000000000000000000001000 P
b00000000000000000000000000001000 Q
1R
b00000000000000000000000000001000 T
b00000000000000000000000000000100 U
b00001 V
b10001100000010110000000000000100 W
b00000000000000000000000000000100 X
b00000000000000000000000000001000 Y
bUUUUUUUUUUUUUUUUUUUUUUUUUU00 \
b00000000000000000000000000001000 ]
b00000000000000UUUUUUUUUUUUUUUU00 ^
b00000000000000000000000000001000 _
1`
Ub
bUUUUU c
bUUUUUUUUUUUUUUUUUUUUUUUUUUUUUUUU e
bUUUUU g
bUUUUU h
bUUUUU i
bUUUUUUUUUUUUUUUUUUUUUUUUUU00 k
b00000000000000UUUUUUUUUUUUUUUU00 n
b0000000000000000UUUUUUUUUUUUUUUU o
1%"
U'"
bUUUUU ("
bUUUUUUUUUUUUUUUUUUUUUUUUUUUUUUUU +"
1."
bUUUUU 1"
12"
bUUUUU 5"
16"
b00000000000000UUUUUUUUUUUUUUUU00 9"
b0000000000000000UUUUUUUUUUUUUUUU :"
1;"
bUUUUUUUUUUUUUUUUUUUUUUUUUU00 >"
1?"
bUUUUU B"
1C"
1e"
Uk"
bUUUUU l"
bUUUUUUUUUUUUUUUUUUUUUUUUUUUUUUUU m"
Un"
bUUUUUUUUUUUUUUUUUUUUUUUUUUUUUUUU p"
1q"
Uw"
bUUUUUUUUUUUUUUUUUUUUUUUUUUUUUUUU y"
bUUUUUUUUUUUUUUUUUUUUUUUUUUUUUUUU z"
1{"
bUUUUU !#
1"#
bUUUUUUUUUUUUUUUUUUUUUUUUUUUUUUUU %#
1&#
U)#
1*#
U-#
#400000000
0!
0%
0H
0R
0`
0%"
0."
02"
06"
0;"
0?"
0C"
0e"
0q"
0{"
0"#
0&#
0*#
#420000000
#500000000
1!
1%
b00010001010010110000000000001000 (
b00010001010010110000000000001000 ;
1H
b00010001010010110000000000001000 N
b00000000000000000000000000001000 O
b00000000000000000000000000001100 P
b00000000000000000000000000001100 Q
1R
b00000000000000000000000000001100 T
b00000000000000000000000000001000 U
b00010 V
b00010001010010110000000000001000 W
b00000000000000000000000000001000 X
b00000000000000000000000000001100 Y
b00000000000000000000000000001100 ]
b00000000000000000000000000001100 _
1`
1%"
1."
12"
16"
1;"
1?"
1C"
1e"
1q"
1{"
1"#
1&#
1*#
#600000000
0!
0%
0H
0R
0`
0%"
0."
02"
06"
0;"
0?"
0C"
0e"
0q"
0{"
0"#
0&#
0*#
#700000000
1!
1%
b00000001010010111010000000101010 (
b00000001010010111010000000101010 ;
1H
b00000001010010111010000000101010 N
b00000000000000000000000000001100 O
b00000000000000000000000000010000 P
b00000000000000000000000000010000 Q
1R
b00000000000000000000000000010000 T
b00000000000000000000000000001100 U
b00011 V
b00000001010010111010000000101010 W
b00000000000000000000000000001100 X
b00000000000000000000000000010000 Y
b00000000000000000000000000010000 ]
b00000000000000000000000000010000 _
1`
1%"
1."
12"
16"
1;"
1?"
1C"
1e"
1q"
1{"
1"#
1&#
1*#
#800000000
0!
0%
0H
0R
0`
0%"
0."
02"
06"
0;"
0?"
0C"
0e"
0q"
0{"
0"#
0&#
0*#
#900000000
1!
1%
b00010010100000000000000000000011 (
b00010010100000000000000000000011 ;
1H
b00010010100000000000000000000011 N
b00000000000000000000000000010000 O
b00000000000000000000000000010100 P
b00000000000000000000000000010100 Q
1R
b00000000000000000000000000010100 T
b00000000000000000000000000010000 U
b00100 V
b00010010100000000000000000000011 W
b00000000000000000000000000010000 X
b00000000000000000000000000010100 Y
b00000000000000000000000000010100 ]
b00000000000000000000000000010100 _
1`
1%"
1."
12"
16"
1;"
1?"
1C"
1e"
1q"
1{"
1"#
1&#
1*#
#1000000000
0!
0%
0H
0R
0`
0%"
0."
02"
06"
0;"
0?"
0C"
0e"
0q"
0{"
0"#
0&#
0*#
#1100000000
1!
1%
b00000001011010100101100000100010 (
b00000001011010100101100000100010 ;
1H
b00000001011010100101100000100010 N
b00000000000000000000000000010100 O
b00000000000000000000000000011000 P
b00000000000000000000000000011000 Q
1R
b00000000000000000000000000011000 T
b00000000000000000000000000010100 U
b00101 V
b00000001011010100101100000100010 W
b00000000000000000000000000010100 X
b00000000000000000000000000011000 Y
b00000000000000000000000000011000 ]
b00000000000000000000000000011000 _
1`
1%"
1."
12"
16"
1;"
1?"
1C"
1e"
1q"
1{"
1"#
1&#
1*#
#1200000000
0!
0%
0H
0R
0`
0%"
0."
02"
06"
0;"
0?"
0C"
0e"
0q"
0{"
0"#
0&#
0*#
#1300000000
1!
1%
b00001000000000000000000000000010 (
b00001000000000000000000000000010 ;
1H
b00001000000000000000000000000010 N
b00000000000000000000000000011000 O
b00000000000000000000000000011100 P
b00000000000000000000000000011100 Q
1R
b00000000000000000000000000011100 T
b00000000000000000000000000011000 U
b00110 V
b00001000000000000000000000000010 W
b00000000000000000000000000011000 X
b00000000000000000000000000011100 Y
b00000000000000000000000000011100 ]
b00000000000000000000000000011100 _
1`
1%"
1."
12"
16"
1;"
1?"
1C"
1e"
1q"
1{"
1"#
1&#
1*#
#1400000000
0!
0%
0H
0R
0`
0%"
0."
02"
06"
0;"
0?"
0C"
0e"
0q"
0{"
0"#
0&#
0*#
#1500000000
1!
1%
b00000100000000000000000000000000 (
b00000100000000000000000000000000 ;
1H
b00000100000000000000000000000000 N
b00000000000000000000000000011100 O
b00000000000000000000000000100000 P
b00000000000000000000000000100000 Q
1R
b00000000000000000000000000100000 T
b00000000000000000000000000011100 U
b00111 V
b00000100000000000000000000000000 W
b00000000000000000000000000011100 X
b00000000000000000000000000100000 Y
b00000000000000000000000000100000 ]
b00000000000000000000000000100000 _
1`
1%"
1."
12"
16"
1;"
1?"
1C"
1e"
1q"
1{"
1"#
1&#
1*#
#1600000000
0!
0%
0H
0R
0`
0%"
0."
02"
06"
0;"
0?"
0C"
0e"
0q"
0{"
0"#
0&#
0*#
#1700000000
1!
1%
b00000001010010110101000000100010 (
b00000001010010110101000000100010 ;
1H
b00000001010010110101000000100010 N
b00000000000000000000000000100000 O
b00000000000000000000000000100100 P
b00000000000000000000000000100100 Q
1R
b00000000000000000000000000100100 T
b00000000000000000000000000100000 U
b01000 V
b00000001010010110101000000100010 W
b00000000000000000000000000100000 X
b00000000000000000000000000100100 Y
b00000000000000000000000000100100 ]
b00000000000000000000000000100100 _
1`
1%"
1."
12"
16"
1;"
1?"
1C"
1e"
1q"
1{"
1"#
1&#
1*#
#1800000000
0!
0%
0H
0R
0`
0%"
0."
02"
06"
0;"
0?"
0C"
0e"
0q"
0{"
0"#
0&#
0*#
#1900000000
1!
1%
b00001000000000000000000000000010 (
b00001000000000000000000000000010 ;
1H
b00001000000000000000000000000010 N
b00000000000000000000000000100100 O
b00000000000000000000000000101000 P
b00000000000000000000000000101000 Q
1R
b00000000000000000000000000101000 T
b00000000000000000000000000100100 U
b01001 V
b00001000000000000000000000000010 W
b00000000000000000000000000100100 X
b00000000000000000000000000101000 Y
b00000000000000000000000000101000 ]
b00000000000000000000000000101000 _
1`
1%"
1."
12"
16"
1;"
1?"
1C"
1e"
1q"
1{"
1"#
1&#
1*#
#2000000000
0!
0%
0H
0R
0`
0%"
0."
02"
06"
0;"
0?"
0C"
0e"
0q"
0{"
0"#
0&#
0*#
#2100000000
1!
1%
b00000100000000000000000000000000 (
b00000100000000000000000000000000 ;
1H
b00000100000000000000000000000000 N
b00000000000000000000000000101000 O
b00000000000000000000000000101100 P
b00000000000000000000000000101100 Q
1R
b00000000000000000000000000101100 T
b00000000000000000000000000101000 U
b01010 V
b00000100000000000000000000000000 W
b00000000000000000000000000101000 X
b00000000000000000000000000101100 Y
b00000000000000000000000000101100 ]
b00000000000000000000000000101100 _
1`
1%"
1."
12"
16"
1;"
1?"
1C"
1e"
1q"
1{"
1"#
1&#
1*#
#2200000000
0!
0%
0H
0R
0`
0%"
0."
02"
06"
0;"
0?"
0C"
0e"
0q"
0{"
0"#
0&#
0*#
#2300000000
1!
1%
b10101100000010100000000000001000 (
b10101100000010100000000000001000 ;
1H
b10101100000010100000000000001000 N
b00000000000000000000000000101100 O
b00000000000000000000000000110000 P
b00000000000000000000000000110000 Q
1R
b00000000000000000000000000110000 T
b00000000000000000000000000101100 U
b01011 V
b10101100000010100000000000001000 W
b00000000000000000000000000101100 X
b00000000000000000000000000110000 Y
b00000000000000000000000000110000 ]
b00000000000000000000000000110000 _
1`
1%"
1."
12"
16"
1;"
1?"
1C"
1e"
1q"
1{"
1"#
1&#
1*#
#2400000000
0!
0%
0H
0R
0`
0%"
0."
02"
06"
0;"
0?"
0C"
0e"
0q"
0{"
0"#
0&#
0*#
#2500000000
1!
1%
b00001000000000000000000000001100 (
b00001000000000000000000000001100 ;
1H
b00001000000000000000000000001100 N
b00000000000000000000000000110000 O
b00000000000000000000000000110100 P
b00000000000000000000000000110100 Q
1R
b00000000000000000000000000110100 T
b00000000000000000000000000110000 U
b01100 V
b00001000000000000000000000001100 W
b00000000000000000000000000110000 X
b00000000000000000000000000110100 Y
b00000000000000000000000000110100 ]
b00000000000000000000000000110100 _
1`
1%"
1."
12"
16"
1;"
1?"
1C"
1e"
1q"
1{"
1"#
1&#
1*#
#2600000000
0!
0%
0H
0R
0`
0%"
0."
02"
06"
0;"
0?"
0C"
0e"
0q"
0{"
0"#
0&#
0*#
#2700000000
1!
1%
b00000100000000000000000000000000 (
b00000100000000000000000000000000 ;
1H
b00000100000000000000000000000000 N
b00000000000000000000000000110100 O
b00000000000000000000000000111000 P
b00000000000000000000000000111000 Q
1R
b00000000000000000000000000111000 T
b00000000000000000000000000110100 U
b01101 V
b00000100000000000000000000000000 W
b00000000000000000000000000110100 X
b00000000000000000000000000111000 Y
b00000000000000000000000000111000 ]
b00000000000000000000000000111000 _
1`
1%"
1."
12"
16"
1;"
1?"
1C"
1e"
1q"
1{"
1"#
1&#
1*#
#2800000000
0!
0%
0H
0R
0`
0%"
0."
02"
06"
0;"
0?"
0C"
0e"
0q"
0{"
0"#
0&#
0*#
#2900000000
1!
1%
1H
b00000000000000000000000000111000 O
b00000000000000000000000000111100 P
b00000000000000000000000000111100 Q
1R
b00000000000000000000000000111100 T
b00000000000000000000000000111000 U
b01110 V
b00000000000000000000000000111000 X
b00000000000000000000000000111100 Y
b00000000000000000000000000111100 ]
b00000000000000000000000000111100 _
1`
1%"
1."
12"
16"
1;"
1?"
1C"
1e"
1q"
1{"
1"#
1&#
1*#
#3000000000
0!
0%
0H
0R
0`
0%"
0."
02"
06"
0;"
0?"
0C"
0e"
0q"
0{"
0"#
0&#
0*#
#3100000000
1!
1%
1H
b00000000000000000000000000111100 O
b00000000000000000000000001000000 P
b00000000000000000000000001000000 Q
1R
b00000000000000000000000001000000 T
b00000000000000000000000000111100 U
b01111 V
b00000000000000000000000000111100 X
b00000000000000000000000001000000 Y
b00000000000000000000000001000000 ]
b00000000000000000000000001000000 _
1`
1%"
1."
12"
16"
1;"
1?"
1C"
1e"
1q"
1{"
1"#
1&#
1*#
#3200000000
0!
0%
0H
0R
0`
0%"
0."
02"
06"
0;"
0?"
0C"
0e"
0q"
0{"
0"#
0&#
0*#
#3300000000
1!
1%
1H
b00000000000000000000000001000000 O
b00000000000000000000000001000100 P
b00000000000000000000000001000100 Q
1R
b00000000000000000000000001000100 T
b00000000000000000000000001000000 U
b10000 V
b00000000000000000000000001000000 X
b00000000000000000000000001000100 Y
b00000000000000000000000001000100 ]
b00000000000000000000000001000100 _
1`
1%"
1."
12"
16"
1;"
1?"
1C"
1e"
1q"
1{"
1"#
1&#
1*#
#3400000000
0!
0%
0H
0R
0`
0%"
0."
02"
06"
0;"
0?"
0C"
0e"
0q"
0{"
0"#
0&#
0*#
#3500000000
1!
1%
1H
b00000000000000000000000001000100 O
b00000000000000000000000001001000 P
b00000000000000000000000001001000 Q
1R
b00000000000000000000000001001000 T
b00000000000000000000000001000100 U
b10001 V
b00000000000000000000000001000100 X
b00000000000000000000000001001000 Y
b00000000000000000000000001001000 ]
b00000000000000000000000001001000 _
1`
1%"
1."
12"
16"
1;"
1?"
1C"
1e"
1q"
1{"
1"#
1&#
1*#
#3600000000
0!
0%
0H
0R
0`
0%"
0."
02"
06"
0;"
0?"
0C"
0e"
0q"
0{"
0"#
0&#
0*#
#3700000000
1!
1%
1H
b00000000000000000000000001001000 O
b00000000000000000000000001001100 P
b00000000000000000000000001001100 Q
1R
b00000000000000000000000001001100 T
b00000000000000000000000001001000 U
b10010 V
b00000000000000000000000001001000 X
b00000000000000000000000001001100 Y
b00000000000000000000000001001100 ]
b00000000000000000000000001001100 _
1`
1%"
1."
12"
16"
1;"
1?"
1C"
1e"
1q"
1{"
1"#
1&#
1*#
#3800000000
0!
0%
0H
0R
0`
0%"
0."
02"
06"
0;"
0?"
0C"
0e"
0q"
0{"
0"#
0&#
0*#
#3900000000
1!
1%
1H
b00000000000000000000000001001100 O
b00000000000000000000000001010000 P
b00000000000000000000000001010000 Q
1R
b00000000000000000000000001010000 T
b00000000000000000000000001001100 U
b10011 V
b00000000000000000000000001001100 X
b00000000000000000000000001010000 Y
b00000000000000000000000001010000 ]
b00000000000000000000000001010000 _
1`
1%"
1."
12"
16"
1;"
1?"
1C"
1e"
1q"
1{"
1"#
1&#
1*#
#4000000000
0!
0%
0H
0R
0`
0%"
0."
02"
06"
0;"
0?"
0C"
0e"
0q"
0{"
0"#
0&#
0*#
#4100000000
1!
1%
1H
b00000000000000000000000001010000 O
b00000000000000000000000001010100 P
b00000000000000000000000001010100 Q
1R
b00000000000000000000000001010100 T
b00000000000000000000000001010000 U
b10100 V
b00000000000000000000000001010000 X
b00000000000000000000000001010100 Y
b00000000000000000000000001010100 ]
b00000000000000000000000001010100 _
1`
1%"
1."
12"
16"
1;"
1?"
1C"
1e"
1q"
1{"
1"#
1&#
1*#
