SuperPipelineCPU/vcdfile/alu_jump.vcd
$date
  Fri Dec 08 17:31:44 2017
$end
$version
  GHDL v0
$end
$timescale
  1 fs
$end
$var reg 1 ! rst $end
$var reg 2 " adsel_ctrl[1:0] $end
$var reg 4 # aluctrl[3:0] $end
$var reg 32 $ in1[31:0] $end
$var reg 32 % in2[31:0] $end
$scope module dut $end
$var reg 1 & rst $end
$var reg 4 ' aluctrl[3:0] $end
$var reg 32 ( in1[31:0] $end
$var reg 32 ) in2[31:0] $end
$var reg 2 * adsel_ctrl[1:0] $end
$upscope $end
$enddefinitions $end
#0
0!
b00 "
b0000 #
b00000000000000000000000000000100 $
b00000000000000000000000000000110 %
0&
b0000 '
b00000000000000000000000000000100 (
b00000000000000000000000000000110 )
b00 *
#20000000
#220000000
1!
1&
#420000000
b00000000000000000000000000001000 $
b00000000000000000000000000001000 (
#620000000
b0001 #
b0001 '
#820000000
b0010 #
b00000000000000000000000000001100 $
b00000000000000000000000000001010 %
b0010 '
b00000000000000000000000000001100 (
b00000000000000000000000000001010 )
#1020000000
b0011 #
b0011 '
#1220000000
b0100 #
b0100 '
#1420000000
b0101 #
b0101 '
#1620000000
b1000 #
b11000000000000000000000000001101 $
b00000000000000000000000000000110 %
b1000 '
b11000000000000000000000000001101 (
b00000000000000000000000000000110 )
#1820000000
b1001 #
b1001 '
#2020000000
b1010 #
b00000000000000000000000000001100 %
b1010 '
b00000000000000000000000000001100 )
#2220000000
b1100 #
b00000000000000000000000000000101 $
b00000000000000000000000000000010 %
b1100 '
b00000000000000000000000000000101 (
b00000000000000000000000000000010 )
#2420000000
b00000000000000000000000000000101 %
b00000000000000000000000000000101 )
#2620000000
b00000000000000000000000000001010 %
b00000000000000000000000000001010 )
#2820000000
b01 "
b1101 #
b00000000000000000000000000000101 %
b1101 '
b00000000000000000000000000000101 )
b01 *
#3020000000
b00 "
b00000000000000000000000000001010 %
b00000000000000000000000000001010 )
b00 *
#3220000000
b0011 #
b00000000000000000000000000001000 $
b00000000000000000000000000000100 %
b0011 '
b00000000000000000000000000001000 (
b00000000000000000000000000000100 )
#3420000000
b10 "
b1110 #
b1110 '
b10 *
#3620000000
b00 "
b0000 #
b0000 '
b00 *
