SuperPipelineCPU/vcdfile/ctrl.vcd
$date
  Fri Nov 17 17:24:37 2017
$end
$version
  GHDL v0
$end
$timescale
  1 fs
$end
$var reg 1 ! clk $end
$var reg 1 " rst $end
$var reg 6 # opcode[5:0] $end
$var reg 6 $ funct[5:0] $end
$var reg 9 % ctrlout[8:0] $end
$scope module dut $end
$var reg 1 & clk $end
$var reg 1 ' rst $end
$var reg 6 ( opcode[5:0] $end
$var reg 6 ) funct[5:0] $end
$var reg 9 * ctrl[8:0] $end
$upscope $end
$enddefinitions $end
#0
0!
0"
b000000 #
b000000 $
b000000000 %
0&
0'
b000000 (
b000000 )
b000000000 *
#20000000
#100000000
1!
1&
#200000000
0!
0&
#220000000
1"
1'
#300000000
1!
1&
#400000000
0!
0&
#420000000
b100011 #
b100011 (
#500000000
1!
b100100001 %
1&
b100100001 *
#600000000
0!
0&
#620000000
b101011 #
b101011 (
#700000000
1!
b110100100 %
1&
b110100100 *
#800000000
0!
0&
#820000000
b000100 #
b000100 (
#900000000
1!
b011101010 %
1&
b011101010 *
#1000000000
0!
0&
#1020000000
b000010 #
b000010 (
#1100000000
1!
b011110000 %
1&
b011110000 *
#1200000000
0!
0&
#1220000000
b011100 #
b011100 (
#1300000000
1!
b000000000 %
1&
b000000000 *
#1400000000
0!
0&
#1420000000
0"
b100011 #
0'
b100011 (
#1500000000
1!
1&
#1600000000
0!
0&
#1620000000
1"
b000000 #
1'
b000000 (
#1700000000
1!
1&
#1800000000
0!
0&
#1820000000
b000010 #
b000010 (
#1900000000
1!
b011110000 %
1&
b011110000 *
#2000000000
0!
0&
#2020000000
b000000 #
b000000 (
#2100000000
1!
b000000000 %
1&
b000000000 *
#2200000000
0!
0&
#2220000000
b000001 $
b000001 )
#2300000000
1!
b010000011 %
1&
b010000011 *
#2400000000
0!
0&
#2420000000
b000011 $
b000011 )
#2500000000
1!
b010010011 %
1&
b010010011 *
#2600000000
0!
0&
#2620000000
b100000 $
b100000 )
#2700000000
1!
b010100011 %
1&
b010100011 *
#2800000000
0!
0&
#2820000000
b100010 $
b100010 )
#2900000000
1!
b010101011 %
1&
b010101011 *
#3000000000
0!
0&
#3020000000
b100100 $
b100100 )
#3100000000
1!
b011000011 %
1&
b011000011 *
#3200000000
0!
0&
#3220000000
b100101 $
b100101 )
#3300000000
1!
b011001011 %
1&
b011001011 *
#3400000000
0!
0&
#3420000000
b100110 $
b100110 )
#3500000000
1!
b011010011 %
1&
b011010011 *
#3600000000
0!
0&
#3620000000
b100111 $
b100111 )
#3700000000
1!
b011011011 %
1&
b011011011 *
#3800000000
0!
0&
#3820000000
b101010 $
b101010 )
#3900000000
1!
b011100011 %
1&
b011100011 *
