SuperPipelineCPU/vcdfile/datamem.vcd
$date
  Sat Jan 06 21:06:37 2018
$end
$version
  GHDL v0
$end
$timescale
  1 fs
$end
$var reg 1 ! clk $end
$var reg 1 " rst $end
$var reg 1 # we $end
$var reg 6 $ address[5:0] $end
$var reg 32 % indata[31:0] $end
$var reg 32 & outdata[31:0] $end
$scope module dut $end
$var reg 1 ' clk $end
$var reg 1 ( rst $end
$var reg 1 ) we $end
$var reg 6 * address[5:0] $end
$var reg 32 + indata[31:0] $end
$var reg 32 , outdata[31:0] $end
$comment memdata is not handled $end
$upscope $end
$enddefinitions $end
#0
0!
0"
0#
b000000 $
b00000000000000000100010001000100 %
b00000000000000000000000000000000 &
0'
0(
0)
b000000 *
b00000000000000000100010001000100 +
b00000000000000000000000000000000 ,
#20000000
#100000000
1!
1'
#200000000
0!
0'
#220000000
1"
1(
#300000000
1!
1'
#400000000
0!
0'
#420000000
b000001 $
b00010001000100010010001000100010 %
b000001 *
b00010001000100010010001000100010 +
#500000000
1!
b00000000000000000000000000000001 &
1'
b00000000000000000000000000000001 ,
#600000000
0!
0'
#620000000
b000010 $
b000010 *
#700000000
1!
b00000000000000000000000000000010 &
1'
b00000000000000000000000000000010 ,
#800000000
0!
0'
#820000000
b000011 $
b000011 *
#900000000
1!
b00000000000000000000000000000011 &
1'
b00000000000000000000000000000011 ,
#1000000000
0!
0'
#1020000000
b000100 $
b000100 *
#1100000000
1!
b00000000000000000000000000000100 &
1'
b00000000000000000000000000000100 ,
#1200000000
0!
0'
#1220000000
b001000 $
b001000 *
#1300000000
1!
b00000000000000000000000000001000 &
1'
b00000000000000000000000000001000 ,
#1400000000
0!
0'
#1420000000
1#
b001100 $
b00110011001100111000100010001000 %
1)
b001100 *
b00110011001100111000100010001000 +
#1500000000
1!
b00000000000000000000000000001100 &
1'
b00000000000000000000000000001100 ,
#1600000000
0!
0'
#1620000000
0#
b00110011001100110101010101010101 %
0)
b00110011001100110101010101010101 +
#1700000000
1!
b00110011001100111000100010001000 &
1'
b00110011001100111000100010001000 ,
