SuperPipelineCPU/vcdfile/id_stage.vcd
$date
  Mon Nov 27 13:37:28 2017
$end
$version
  GHDL v0
$end
$timescale
  1 fs
$end
$var reg 1 ! clk $end
$var reg 1 " rst $end
$var reg 1 # regwe $end
$var reg 5 $ wad[4:0] $end
$var reg 32 % stallout[31:0] $end
$var reg 32 & wdata[31:0] $end
$var reg 5 ' rtad[4:0] $end
$var reg 5 ( rdad[4:0] $end
$var reg 5 ) shamt[4:0] $end
$var reg 9 * ctrlout[8:0] $end
$var reg 28 + ex26[27:0] $end
$var reg 32 , rs[31:0] $end
$var reg 32 - rt[31:0] $end
$var reg 32 . ex16_1[31:0] $end
$var reg 32 / ex16_2[31:0] $end
$scope module dut $end
$var reg 1 0 clk $end
$var reg 1 1 rst $end
$var reg 1 2 regwe $end
$var reg 5 3 wad[4:0] $end
$var reg 32 4 stallout[31:0] $end
$var reg 32 5 wdata[31:0] $end
$var reg 5 6 rtad[4:0] $end
$var reg 5 7 rdad[4:0] $end
$var reg 5 8 shamt[4:0] $end
$var reg 9 9 ctrlout[8:0] $end
$var reg 28 : ex26[27:0] $end
$var reg 32 ; rs[31:0] $end
$var reg 32 < rt[31:0] $end
$var reg 32 = ex16_1[31:0] $end
$var reg 32 > ex16_2[31:0] $end
$var reg 32 ? r_stall_out[31:0] $end
$scope module m1 $end
$var reg 1 @ clk $end
$var reg 1 A rst $end
$var reg 1 B we $end
$var reg 5 C wad[4:0] $end
$var reg 5 D rad1[4:0] $end
$var reg 5 E rad2[4:0] $end
$var reg 32 F indata[31:0] $end
$var reg 32 G out1[31:0] $end
$var reg 32 H out2[31:0] $end
$comment regdata is not handled $end
$upscope $end
$scope module m2 $end
$var reg 1 I clk $end
$var reg 1 J rst $end
$var reg 5 K in5[4:0] $end
$var reg 5 L out5[4:0] $end
$upscope $end
$scope module m3 $end
$var reg 1 M clk $end
$var reg 1 N rst $end
$var reg 5 O in5[4:0] $end
$var reg 5 P out5[4:0] $end
$upscope $end
$scope module m4 $end
$var reg 1 Q clk $end
$var reg 1 R rst $end
$var reg 16 S in16[15:0] $end
$var reg 32 T out1[31:0] $end
$var reg 32 U out2[31:0] $end
$upscope $end
$scope module m5 $end
$var reg 1 V clk $end
$var reg 1 W rst $end
$var reg 26 X in26[25:0] $end
$var reg 28 Y out28[27:0] $end
$upscope $end
$scope module m6 $end
$var reg 1 Z clk $end
$var reg 1 [ rst $end
$var reg 5 \ in5[4:0] $end
$var reg 5 ] out5[4:0] $end
$upscope $end
$scope module m7 $end
$var reg 1 ^ clk $end
$var reg 1 _ rst $end
$var reg 6 ` opcode[5:0] $end
$var reg 6 a funct[5:0] $end
$var reg 9 b ctrl[8:0] $end
$upscope $end
$upscope $end
$enddefinitions $end
#0
0!
0"
0#
b00000 $
b00000000000000000000000000000000 %
b00000000000000000000000000000000 &
b00000 '
b00000 (
b00000 )
b000000000 *
b0000000000000000000000000000 +
b00000000000000000000000000000000 ,
b00000000000000000000000000000000 -
b00000000000000000000000000000000 .
b00000000000000000000000000000000 /
00
01
02
b00000 3
b00000000000000000000000000000000 4
b00000000000000000000000000000000 5
b00000 6
b00000 7
b00000 8
b000000000 9
b0000000000000000000000000000 :
b00000000000000000000000000000000 ;
b00000000000000000000000000000000 <
b00000000000000000000000000000000 =
b00000000000000000000000000000000 >
bUUUUUUUUUUUUUUUUUUUUUUUUUUUUUUUU ?
0@
0A
0B
b00000 C
b00000 D
b00000 E
b00000000000000000000000000000000 F
b00000000000000000000000000000000 G
b00000000000000000000000000000000 H
0I
0J
b00000 K
b00000 L
0M
0N
b00000 O
b00000 P
0Q
0R
b0000000000000000 S
b00000000000000000000000000000000 T
b00000000000000000000000000000000 U
0V
0W
b00000000000000000000000000 X
b0000000000000000000000000000 Y
0Z
0[
b00000 \
b00000 ]
0^
0_
b000000 `
b000000 a
b000000000 b
#20000000
#100000000
1!
10
1@
1I
1M
1Q
1V
1Z
1^
#200000000
0!
00
0@
0I
0M
0Q
0V
0Z
0^
#220000000
1"
1#
b00011 $
b00000000001000100001100000100000 %
b00000000000000000001000100010001 &
11
12
b00011 3
b00000000001000100001100000100000 4
b00000000000000000001000100010001 5
1A
1B
b00011 C
b00001 D
b00010 E
b00000000000000000001000100010001 F
1J
b00010 K
1N
b00011 O
1R
b0001100000100000 S
1W
b00001000100001100000100000 X
1[
1_
b100000 a
#300000000
1!
b00010 '
b00011 (
b010100011 *
b0000100010000110000010000000 +
b00000000000000000110000010000000 .
b00000000000000000001100000100000 /
10
b00010 6
b00011 7
b010100011 9
b0000100010000110000010000000 :
b00000000000000000110000010000000 =
b00000000000000000001100000100000 >
1@
1I
b00010 L
1M
b00011 P
1Q
b00000000000000000110000010000000 T
b00000000000000000001100000100000 U
1V
b0000100010000110000010000000 Y
1Z
1^
b010100011 b
#400000000
0!
00
0@
0I
0M
0Q
0V
0Z
0^
#420000000
b00001 $
b00000000001001010100000000100000 %
b00000000000000000011001100110011 &
b00001 3
b00000000001001010100000000100000 4
b00000000000000000011001100110011 5
b00001 C
b00101 E
b00000000000000000011001100110011 F
b00101 K
b01000 O
b0100000000100000 S
b00001001010100000000100000 X
#500000000
1!
b00101 '
b01000 (
b0000100101010000000010000000 +
b00000000000000000011001100110011 ,
b00000000000000010000000010000000 .
b00000000000000000100000000100000 /
10
b00101 6
b01000 7
b0000100101010000000010000000 :
b00000000000000000011001100110011 ;
b00000000000000010000000010000000 =
b00000000000000000100000000100000 >
1@
b00000000000000000011001100110011 G
1I
b00101 L
1M
b01000 P
1Q
b00000000000000010000000010000000 T
b00000000000000000100000000100000 U
1V
b0000100101010000000010000000 Y
1Z
1^
#600000000
0!
00
0@
0I
0M
0Q
0V
0Z
0^
#620000000
0#
b00000 $
b10001100100001100000000000000100 %
b00000000000000000000000000000000 &
02
b00000 3
b10001100100001100000000000000100 4
b00000000000000000000000000000000 5
0B
b00000 C
b00100 D
b00110 E
b00000000000000000000000000000000 F
b00110 K
b00000 O
b0000000000000100 S
b00100001100000000000000100 X
b100011 `
b000100 a
#700000000
1!
b00110 '
b00000 (
b100100001 *
b0010000110000000000000010000 +
b00000000000000000000000000000000 ,
b00000000000000000000000000010000 .
b00000000000000000000000000000100 /
10
b00110 6
b00000 7
b100100001 9
b0010000110000000000000010000 :
b00000000000000000000000000000000 ;
b00000000000000000000000000010000 =
b00000000000000000000000000000100 >
1@
b00000000000000000000000000000000 G
1I
b00110 L
1M
b00000 P
1Q
b00000000000000000000000000010000 T
b00000000000000000000000000000100 U
1V
b0010000110000000000000010000 Y
1Z
1^
b100100001 b
#800000000
0!
00
0@
0I
0M
0Q
0V
0Z
0^
#820000000
b00000000001000110010000000100000 %
b00000000001000110010000000100000 4
b00001 D
b00011 E
b00011 K
b00100 O
b0010000000100000 S
b00001000110010000000100000 X
b000000 `
b100000 a
#900000000
1!
b00011 '
b00100 (
b010100011 *
b0000100011001000000010000000 +
b00000000000000000011001100110011 ,
b00000000000000000001000100010001 -
b00000000000000001000000010000000 .
b00000000000000000010000000100000 /
10
b00011 6
b00100 7
b010100011 9
b0000100011001000000010000000 :
b00000000000000000011001100110011 ;
b00000000000000000001000100010001 <
b00000000000000001000000010000000 =
b00000000000000000010000000100000 >
1@
b00000000000000000011001100110011 G
b00000000000000000001000100010001 H
1I
b00011 L
1M
b00100 P
1Q
b00000000000000001000000010000000 T
b00000000000000000010000000100000 U
1V
b0000100011001000000010000000 Y
1Z
1^
b010100011 b
#1000000000
0!
00
0@
0I
0M
0Q
0V
0Z
0^
#1020000000
b10101100110000110000000000000100 %
b10101100110000110000000000000100 4
b00110 D
b00000 O
b0000000000000100 S
b00110000110000000000000100 X
b101011 `
b000100 a
#1100000000
1!
b00000 (
b110100100 *
b0011000011000000000000010000 +
b00000000000000000000000000000000 ,
b00000000000000000000000000010000 .
b00000000000000000000000000000100 /
10
b00000 7
b110100100 9
b0011000011000000000000010000 :
b00000000000000000000000000000000 ;
b00000000000000000000000000010000 =
b00000000000000000000000000000100 >
1@
b00000000000000000000000000000000 G
1I
1M
b00000 P
1Q
b00000000000000000000000000010000 T
b00000000000000000000000000000100 U
1V
b0011000011000000000000010000 Y
1Z
1^
b110100100 b
#1200000000
0!
00
0@
0I
0M
0Q
0V
0Z
0^
#1220000000
b00000000001001010011000000100000 %
b00000000001001010011000000100000 4
b00001 D
b00101 E
b00101 K
b00110 O
b0011000000100000 S
b00001001010011000000100000 X
b000000 `
b100000 a
#1300000000
1!
b00101 '
b00110 (
b010100011 *
b0000100101001100000010000000 +
b00000000000000000011001100110011 ,
b00000000000000000000000000000000 -
b00000000000000001100000010000000 .
b00000000000000000011000000100000 /
10
b00101 6
b00110 7
b010100011 9
b0000100101001100000010000000 :
b00000000000000000011001100110011 ;
b00000000000000000000000000000000 <
b00000000000000001100000010000000 =
b00000000000000000011000000100000 >
1@
b00000000000000000011001100110011 G
b00000000000000000000000000000000 H
1I
b00101 L
1M
b00110 P
1Q
b00000000000000001100000010000000 T
b00000000000000000011000000100000 U
1V
b0000100101001100000010000000 Y
1Z
1^
b010100011 b
#1400000000
0!
00
0@
0I
0M
0Q
0V
0Z
0^
#1420000000
b00000000000000000000000000000000 %
b00000000000000000000000000000000 4
b00000 D
b00000 E
b00000 K
b00000 O
b0000000000000000 S
b00000000000000000000000000 X
b000000 a
#1500000000
1!
b00000 '
b00000 (
b000000000 *
b0000000000000000000000000000 +
b00000000000000000000000000000000 .
b00000000000000000000000000000000 /
10
b00000 6
b00000 7
b000000000 9
b0000000000000000000000000000 :
b00000000000000000000000000000000 =
b00000000000000000000000000000000 >
1@
1I
b00000 L
1M
b00000 P
1Q
b00000000000000000000000000000000 T
b00000000000000000000000000000000 U
1V
b0000000000000000000000000000 Y
1Z
1^
b000000000 b
