SuperPipelineCPU/vcdfile/im.vcd
$date
  Wed Nov 29 11:57:22 2017
$end
$version
  GHDL v0
$end
$timescale
  1 fs
$end
$var reg 5 ! address[4:0] $end
$var reg 32 " inst[31:0] $end
$scope module dut $end
$var reg 5 # address[4:0] $end
$var reg 32 $ inst[31:0] $end
$upscope $end
$enddefinitions $end
#0
b00000 !
b00000100000000000000000000000000 "
b00000 #
b00000100000000000000000000000000 $
#20000000
b00001 !
b10001100000000010000000000000001 "
b00001 #
b10001100000000010000000000000001 $
#220000000
b00010 !
b10001100000000100000000000000010 "
b00010 #
b10001100000000100000000000000010 $
#420000000
b00011 !
b10001100000000110000000000000011 "
b00011 #
b10001100000000110000000000000011 $
#620000000
b00100 !
b10001100000001000000000000000100 "
b00100 #
b10001100000001000000000000000100 $
#820000000
b00101 !
b10001100000001010000000000000101 "
b00101 #
b10001100000001010000000000000101 $
#1020000000
b00110 !
b10001100000001100000000000000110 "
b00110 #
b10001100000001100000000000000110 $
#1220000000
b00111 !
b10001100000001110000000000000111 "
b00111 #
b10001100000001110000000000000111 $
#1420000000
b01000 !
b10001100000010000000000000001000 "
b01000 #
b10001100000010000000000000001000 $
#1620000000
b01001 !
b00000100000000000000000000000000 "
b01001 #
b00000100000000000000000000000000 $
#1820000000
b01010 !
b01010 #
#2020000000
b01011 !
b01011 #
#2220000000
b01100 !
b01100 #
#2420000000
b01101 !
b01101 #
#2620000000
b01110 !
b00010000001010000000000000000010 "
b01110 #
b00010000001010000000000000000010 $
#2820000000
b01111 !
b00010000001000110000000000000010 "
b01111 #
b00010000001000110000000000000010 $
