SuperPipelineCPU/vcdfile/ma_stage.vcd
$date
  Thu Dec 14 15:50:14 2017
$end
$version
  GHDL v0
$end
$timescale
  1 fs
$end
$var reg 1 ! clk $end
$var reg 1 " rst $end
$var reg 5 # wad[4:0] $end
$var reg 3 $ ctrlout_3[2:0] $end
$var reg 32 % aluout[31:0] $end
$var reg 32 & rtdata[31:0] $end
$var reg 1 ' regwe $end
$var reg 5 ( regwad[4:0] $end
$var reg 32 ) outdata[31:0] $end
$scope module dut $end
$var reg 1 * clk $end
$var reg 1 + rst $end
$var reg 5 , wad[4:0] $end
$var reg 3 - ctrlout_3[2:0] $end
$var reg 32 . aluout[31:0] $end
$var reg 32 / rtdata[31:0] $end
$var reg 1 0 regwe $end
$var reg 5 1 regwad[4:0] $end
$var reg 32 2 outdata[31:0] $end
$var reg 1 3 r3_mux $end
$var reg 32 4 dm_r[31:0] $end
$var reg 32 5 r_mux[31:0] $end
$var reg 32 6 r1_mux[31:0] $end
$scope module m1 $end
$var reg 1 7 clk $end
$var reg 1 8 rst $end
$var reg 1 9 we $end
$var reg 5 : address[4:0] $end
$var reg 32 ; indata[31:0] $end
$var reg 32 < outdata[31:0] $end
$comment memdata is not handled $end
$upscope $end
$scope module m3 $end
$var reg 1 = sel $end
$var reg 32 > in0[31:0] $end
$var reg 32 ? in1[31:0] $end
$var reg 32 @ out1[31:0] $end
$upscope $end
$scope module m4 $end
$var reg 1 A clk $end
$var reg 1 B rst $end
$var reg 5 C in5[4:0] $end
$var reg 5 D out5[4:0] $end
$upscope $end
$scope module m5 $end
$var reg 1 E clk $end
$var reg 1 F rst $end
$var reg 32 G in32[31:0] $end
$var reg 32 H out32[31:0] $end
$upscope $end
$scope module m6 $end
$var reg 1 I clk $end
$var reg 1 J rst $end
$var reg 1 K in1 $end
$var reg 1 L out1 $end
$upscope $end
$scope module m7 $end
$var reg 1 M clk $end
$var reg 1 N rst $end
$var reg 1 O in1 $end
$var reg 1 P out1 $end
$upscope $end
$upscope $end
$enddefinitions $end
#0
0!
0"
b00010 #
b011 $
b00000000000000000000000000000110 %
b00000000000000000001000100010001 &
0'
b00000 (
b00000000000000000000000000000000 )
0*
0+
b00010 ,
b011 -
b00000000000000000000000000000110 .
b00000000000000000001000100010001 /
00
b00000 1
b00000000000000000000000000000000 2
03
b00000000000000000000000000000000 4
bUUUUUUUUUUUUUUUUUUUUUUUUUUUUUUUU 5
b00000000000000000000000000000000 6
07
08
09
b00110 :
b00000000000000000001000100010001 ;
b00000000000000000000000000000000 <
0=
b00000000000000000000000000000000 >
b00000000000000000000000000000000 ?
b00000000000000000000000000000000 @
0A
0B
b00010 C
b00000 D
0E
0F
b00000000000000000000000000000110 G
b00000000000000000000000000000000 H
0I
0J
1K
0L
0M
0N
1O
0P
#20000000
#100000000
1!
1*
17
1A
1E
1I
1M
#200000000
0!
0*
07
0A
0E
0I
0M
#220000000
1"
b00100 #
b100 $
1+
b00100 ,
b100 -
18
19
1B
b00100 C
1F
1J
0K
1N
0O
#300000000
1!
b00100 (
b00000000000000000000000000000110 )
1*
b00100 1
b00000000000000000000000000000110 2
b00000000000000000000000000000110 4
b00000000000000000000000000000110 6
17
b00000000000000000000000000000110 <
b00000000000000000000000000000110 >
b00000000000000000000000000000110 ?
b00000000000000000000000000000110 @
1A
b00100 D
1E
b00000000000000000000000000000110 H
1I
1M
#400000000
0!
0*
07
0A
0E
0I
0M
#420000000
b00011 #
b001 $
b00000000000000000010001000100010 &
b00011 ,
b001 -
b00000000000000000010001000100010 /
09
b00000000000000000010001000100010 ;
b00011 C
1O
#500000000
1!
1'
b00011 (
b00000000000000000001000100010001 )
1*
10
b00011 1
b00000000000000000001000100010001 2
b00000000000000000001000100010001 4
17
b00000000000000000001000100010001 <
b00000000000000000001000100010001 >
b00000000000000000001000100010001 @
1A
b00011 D
1E
1I
1M
1P
#600000000
0!
0*
07
0A
0E
0I
0M
#620000000
b00001 #
b010 $
b00000000000000000001000100010001 &
b00001 ,
b010 -
b00000000000000000001000100010001 /
b00000000000000000001000100010001 ;
b00001 C
1K
0O
#700000000
1!
0'
b00001 (
b00000000000000000000000000000110 )
1*
00
b00001 1
b00000000000000000000000000000110 2
13
17
1=
b00000000000000000000000000000110 @
1A
b00001 D
1E
1I
1L
1M
0P
#800000000
0!
0*
07
0A
0E
0I
0M
#820000000
b00010 #
b000 $
b00000000000000000000000000000100 %
b00010 ,
b000 -
b00000000000000000000000000000100 .
b00100 :
b00010 C
b00000000000000000000000000000100 G
0K
#900000000
1!
b00010 (
b00000000000000000000000000000100 )
1*
b00010 1
b00000000000000000000000000000100 2
03
b00000000000000000000000000000100 4
b00000000000000000000000000000100 6
17
b00000000000000000000000000000100 <
0=
b00000000000000000000000000000100 >
b00000000000000000000000000000100 ?
b00000000000000000000000000000100 @
1A
b00010 D
1E
b00000000000000000000000000000100 H
1I
0L
1M
#1000000000
0!
0*
07
0A
0E
0I
0M
#1020000000
b00000000000000000000000000001100 %
b00000000000000000000000000001100 .
b01100 :
b00000000000000000000000000001100 G
#1100000000
1!
b00000000000000000000000000000000 )
1*
b00000000000000000000000000000000 2
b00000000000000000000000000000000 4
b00000000000000000000000000001100 6
17
b00000000000000000000000000000000 <
b00000000000000000000000000000000 >
b00000000000000000000000000001100 ?
b00000000000000000000000000000000 @
1A
1E
b00000000000000000000000000001100 H
1I
1M
#1200000000
0!
0*
07
0A
0E
0I
0M
#1220000000
b011 $
b011 -
1K
1O
#1300000000
1!
1'
b00000000000000000000000000001100 )
1*
10
b00000000000000000000000000001100 2
13
17
1=
b00000000000000000000000000001100 @
1A
1E
1I
1L
1M
1P
